Draft_Phuong/ppa_sk/dump.vcd
$date
	Sun Oct 03 15:14:01 2021
$end
$version
	Icarus Verilog
$end
$timescale
	1ps
$end
$scope module add $end
$var wire 8 ! x1 [7:0] $end
$var wire 8 " x2 [7:0] $end
$var wire 8 # out [7:0] $end
$upscope $end
$enddefinitions $end
#0
$dumpvars
b0 #
b0 "
b0 !
$end
#2000
b1 #
b1 "
#4000
b10 #
b10 "
#6000
b11 #
b11 "
#8000
b100 #
b100 "
#10000
b101 #
b101 "
#12000
b110 #
b110 "
#14000
b111 #
b111 "
#16000
b1000 #
b1000 "
#18000
b1001 #
b1001 "
#20000
b1010 #
b1010 "
#22000
b1011 #
b1011 "
#24000
b1100 #
b1100 "
#26000
b1101 #
b1101 "
#28000
b1110 #
b1110 "
#30000
b1111 #
b1111 "
#32000
b10000 #
b10000 "
#34000
b10001 #
b10001 "
#36000
b10010 #
b10010 "
#38000
b10011 #
b10011 "
#40000
b10100 #
b10100 "
#42000
b10101 #
b10101 "
#44000
b10110 #
b10110 "
#46000
b10111 #
b10111 "
#48000
b11000 #
b11000 "
#50000
b11001 #
b11001 "
#52000
b11010 #
b11010 "
#54000
b11011 #
b11011 "
#56000
b11100 #
b11100 "
#58000
b11101 #
b11101 "
#60000
b11110 #
b11110 "
#62000
b11111 #
b11111 "
#64000
b100000 #
b100000 "
#66000
b100001 #
b100001 "
#68000
b100010 #
b100010 "
#70000
b100011 #
b100011 "
#72000
b100100 #
b100100 "
#74000
b100101 #
b100101 "
#76000
b100110 #
b100110 "
#78000
b100111 #
b100111 "
#80000
b101000 #
b101000 "
#82000
b101001 #
b101001 "
#84000
b101010 #
b101010 "
#86000
b101011 #
b101011 "
#88000
b101100 #
b101100 "
#90000
b101101 #
b101101 "
#92000
b101110 #
b101110 "
#94000
b101111 #
b101111 "
#96000
b110000 #
b110000 "
#98000
b110001 #
b110001 "
#100000
b110010 #
b110010 "
#102000
b110011 #
b110011 "
#104000
b110100 #
b110100 "
#106000
b110101 #
b110101 "
#108000
b110110 #
b110110 "
#110000
b110111 #
b110111 "
#112000
b111000 #
b111000 "
#114000
b111001 #
b111001 "
#116000
b111010 #
b111010 "
#118000
b111011 #
b111011 "
#120000
b111100 #
b111100 "
#122000
b111101 #
b111101 "
#124000
b111110 #
b111110 "
#126000
b111111 #
b111111 "
#128000
b1000000 #
b1000000 "
#130000
b1000001 #
b1000001 "
#132000
b1000010 #
b1000010 "
#134000
b1000011 #
b1000011 "
#136000
b1000100 #
b1000100 "
#138000
b1000101 #
b1000101 "
#140000
b1000110 #
b1000110 "
#142000
b1000111 #
b1000111 "
#144000
b1001000 #
b1001000 "
#146000
b1001001 #
b1001001 "
#148000
b1001010 #
b1001010 "
#150000
b1001011 #
b1001011 "
#152000
b1001100 #
b1001100 "
#154000
b1001101 #
b1001101 "
#156000
b1001110 #
b1001110 "
#158000
b1001111 #
b1001111 "
#160000
b1010000 #
b1010000 "
#162000
b1010001 #
b1010001 "
#164000
b1010010 #
b1010010 "
#166000
b1010011 #
b1010011 "
#168000
b1010100 #
b1010100 "
#170000
b1010101 #
b1010101 "
#172000
b1010110 #
b1010110 "
#174000
b1010111 #
b1010111 "
#176000
b1011000 #
b1011000 "
#178000
b1011001 #
b1011001 "
#180000
b1011010 #
b1011010 "
#182000
b1011011 #
b1011011 "
#184000
b1011100 #
b1011100 "
#186000
b1011101 #
b1011101 "
#188000
b1011110 #
b1011110 "
#190000
b1011111 #
b1011111 "
#192000
b1100000 #
b1100000 "
#194000
b1100001 #
b1100001 "
#196000
b1100010 #
b1100010 "
#198000
b1100011 #
b1100011 "
#200000
b1100100 #
b1100100 "
#202000
b1100101 #
b1100101 "
#204000
b1100110 #
b1100110 "
#206000
b1100111 #
b1100111 "
#208000
b1101000 #
b1101000 "
#210000
b1101001 #
b1101001 "
#212000
b1101010 #
b1101010 "
#214000
b1101011 #
b1101011 "
#216000
b1101100 #
b1101100 "
#218000
b1101101 #
b1101101 "
#220000
b1101110 #
b1101110 "
#222000
b1101111 #
b1101111 "
#224000
b1110000 #
b1110000 "
#226000
b1110001 #
b1110001 "
#228000
b1110010 #
b1110010 "
#230000
b1110011 #
b1110011 "
#232000
b1110100 #
b1110100 "
#234000
b1110101 #
b1110101 "
#236000
b1110110 #
b1110110 "
#238000
b1110111 #
b1110111 "
#240000
b1111000 #
b1111000 "
#242000
b1111001 #
b1111001 "
#244000
b1111010 #
b1111010 "
#246000
b1111011 #
b1111011 "
#248000
b1111100 #
b1111100 "
#250000
b1111101 #
b1111101 "
#252000
b1111110 #
b1111110 "
#254000
b1111111 #
b1111111 "
#256000
b10000000 #
b10000000 "
#258000
b10000001 #
b10000001 "
#260000
b10000010 #
b10000010 "
#262000
b10000011 #
b10000011 "
#264000
b10000100 #
b10000100 "
#266000
b10000101 #
b10000101 "
#268000
b10000110 #
b10000110 "
#270000
b10000111 #
b10000111 "
#272000
b10001000 #
b10001000 "
#274000
b10001001 #
b10001001 "
#276000
b10001010 #
b10001010 "
#278000
b10001011 #
b10001011 "
#280000
b10001100 #
b10001100 "
#282000
b10001101 #
b10001101 "
#284000
b10001110 #
b10001110 "
#286000
b10001111 #
b10001111 "
#288000
b10010000 #
b10010000 "
#290000
b10010001 #
b10010001 "
#292000
b10010010 #
b10010010 "
#294000
b10010011 #
b10010011 "
#296000
b10010100 #
b10010100 "
#298000
b10010101 #
b10010101 "
#300000
b10010110 #
b10010110 "
#302000
b10010111 #
b10010111 "
#304000
b10011000 #
b10011000 "
#306000
b10011001 #
b10011001 "
#308000
b10011010 #
b10011010 "
#310000
b10011011 #
b10011011 "
#312000
b10011100 #
b10011100 "
#314000
b10011101 #
b10011101 "
#316000
b10011110 #
b10011110 "
#318000
b10011111 #
b10011111 "
#320000
b10100000 #
b10100000 "
#322000
b10100001 #
b10100001 "
#324000
b10100010 #
b10100010 "
#326000
b10100011 #
b10100011 "
#328000
b10100100 #
b10100100 "
#330000
b10100101 #
b10100101 "
#332000
b10100110 #
b10100110 "
#334000
b10100111 #
b10100111 "
#336000
b10101000 #
b10101000 "
#338000
b10101001 #
b10101001 "
#340000
b10101010 #
b10101010 "
#342000
b10101011 #
b10101011 "
#344000
b10101100 #
b10101100 "
#346000
b10101101 #
b10101101 "
#348000
b10101110 #
b10101110 "
#350000
b10101111 #
b10101111 "
#352000
b10110000 #
b10110000 "
#354000
b10110001 #
b10110001 "
#356000
b10110010 #
b10110010 "
#358000
b10110011 #
b10110011 "
#360000
b10110100 #
b10110100 "
#362000
b10110101 #
b10110101 "
#364000
b10110110 #
b10110110 "
#366000
b10110111 #
b10110111 "
#368000
b10111000 #
b10111000 "
#370000
b10111001 #
b10111001 "
#372000
b10111010 #
b10111010 "
#374000
b10111011 #
b10111011 "
#376000
b10111100 #
b10111100 "
#378000
b10111101 #
b10111101 "
#380000
b10111110 #
b10111110 "
#382000
b10111111 #
b10111111 "
#384000
b11000000 #
b11000000 "
#386000
b11000001 #
b11000001 "
#388000
b11000010 #
b11000010 "
#390000
b11000011 #
b11000011 "
#392000
b11000100 #
b11000100 "
#394000
b11000101 #
b11000101 "
#396000
b11000110 #
b11000110 "
#398000
b11000111 #
b11000111 "
#400000
b11001000 #
b11001000 "
#402000
b11001001 #
b11001001 "
#404000
b11001010 #
b11001010 "
#406000
b11001011 #
b11001011 "
#408000
b11001100 #
b11001100 "
#410000
b11001101 #
b11001101 "
#412000
b11001110 #
b11001110 "
#414000
b11001111 #
b11001111 "
#416000
b11010000 #
b11010000 "
#418000
b11010001 #
b11010001 "
#420000
b11010010 #
b11010010 "
#422000
b11010011 #
b11010011 "
#424000
b11010100 #
b11010100 "
#426000
b11010101 #
b11010101 "
#428000
b11010110 #
b11010110 "
#430000
b11010111 #
b11010111 "
#432000
b11011000 #
b11011000 "
#434000
b11011001 #
b11011001 "
#436000
b11011010 #
b11011010 "
#438000
b11011011 #
b11011011 "
#440000
b11011100 #
b11011100 "
#442000
b11011101 #
b11011101 "
#444000
b11011110 #
b11011110 "
#446000
b11011111 #
b11011111 "
#448000
b11100000 #
b11100000 "
#450000
b11100001 #
b11100001 "
#452000
b11100010 #
b11100010 "
#454000
b11100011 #
b11100011 "
#456000
b11100100 #
b11100100 "
#458000
b11100101 #
b11100101 "
#460000
b11100110 #
b11100110 "
#462000
b11100111 #
b11100111 "
#464000
b11101000 #
b11101000 "
#466000
b11101001 #
b11101001 "
#468000
b11101010 #
b11101010 "
#470000
b11101011 #
b11101011 "
#472000
b11101100 #
b11101100 "
#474000
b11101101 #
b11101101 "
#476000
b11101110 #
b11101110 "
#478000
b11101111 #
b11101111 "
#480000
b11110000 #
b11110000 "
#482000
b11110001 #
b11110001 "
#484000
b11110010 #
b11110010 "
#486000
b11110011 #
b11110011 "
#488000
b11110100 #
b11110100 "
#490000
b11110101 #
b11110101 "
#492000
b11110110 #
b11110110 "
#494000
b11110111 #
b11110111 "
#496000
b11111000 #
b11111000 "
#498000
b11111001 #
b11111001 "
#500000
b11111010 #
b11111010 "
#502000
b11111011 #
b11111011 "
#504000
b11111100 #
b11111100 "
#506000
b11111101 #
b11111101 "
#508000
b11111110 #
b11111110 "
#510000
b11111111 #
b11111111 "
#512000
b1 #
b1 !
b0 "
#514000
b10 #
b1 "
#516000
b11 #
b10 "
#518000
b100 #
b11 "
#520000
b101 #
b100 "
#522000
b110 #
b101 "
#524000
b111 #
b110 "
#526000
b1000 #
b111 "
#528000
b1001 #
b1000 "
#530000
b1010 #
b1001 "
#532000
b1011 #
b1010 "
#534000
b1100 #
b1011 "
#536000
b1101 #
b1100 "
#538000
b1110 #
b1101 "
#540000
b1111 #
b1110 "
#542000
b10000 #
b1111 "
#544000
b10001 #
b10000 "
#546000
b10010 #
b10001 "
#548000
b10011 #
b10010 "
#550000
b10100 #
b10011 "
#552000
b10101 #
b10100 "
#554000
b10110 #
b10101 "
#556000
b10111 #
b10110 "
#558000
b11000 #
b10111 "
#560000
b11001 #
b11000 "
#562000
b11010 #
b11001 "
#564000
b11011 #
b11010 "
#566000
b11100 #
b11011 "
#568000
b11101 #
b11100 "
#570000
b11110 #
b11101 "
#572000
b11111 #
b11110 "
#574000
b100000 #
b11111 "
#576000
b100001 #
b100000 "
#578000
b100010 #
b100001 "
#580000
b100011 #
b100010 "
#582000
b100100 #
b100011 "
#584000
b100101 #
b100100 "
#586000
b100110 #
b100101 "
#588000
b100111 #
b100110 "
#590000
b101000 #
b100111 "
#592000
b101001 #
b101000 "
#594000
b101010 #
b101001 "
#596000
b101011 #
b101010 "
#598000
b101100 #
b101011 "
#600000
b101101 #
b101100 "
#602000
b101110 #
b101101 "
#604000
b101111 #
b101110 "
#606000
b110000 #
b101111 "
#608000
b110001 #
b110000 "
#610000
b110010 #
b110001 "
#612000
b110011 #
b110010 "
#614000
b110100 #
b110011 "
#616000
b110101 #
b110100 "
#618000
b110110 #
b110101 "
#620000
b110111 #
b110110 "
#622000
b111000 #
b110111 "
#624000
b111001 #
b111000 "
#626000
b111010 #
b111001 "
#628000
b111011 #
b111010 "
#630000
b111100 #
b111011 "
#632000
b111101 #
b111100 "
#634000
b111110 #
b111101 "
#636000
b111111 #
b111110 "
#638000
b1000000 #
b111111 "
#640000
b1000001 #
b1000000 "
#642000
b1000010 #
b1000001 "
#644000
b1000011 #
b1000010 "
#646000
b1000100 #
b1000011 "
#648000
b1000101 #
b1000100 "
#650000
b1000110 #
b1000101 "
#652000
b1000111 #
b1000110 "
#654000
b1001000 #
b1000111 "
#656000
b1001001 #
b1001000 "
#658000
b1001010 #
b1001001 "
#660000
b1001011 #
b1001010 "
#662000
b1001100 #
b1001011 "
#664000
b1001101 #
b1001100 "
#666000
b1001110 #
b1001101 "
#668000
b1001111 #
b1001110 "
#670000
b1010000 #
b1001111 "
#672000
b1010001 #
b1010000 "
#674000
b1010010 #
b1010001 "
#676000
b1010011 #
b1010010 "
#678000
b1010100 #
b1010011 "
#680000
b1010101 #
b1010100 "
#682000
b1010110 #
b1010101 "
#684000
b1010111 #
b1010110 "
#686000
b1011000 #
b1010111 "
#688000
b1011001 #
b1011000 "
#690000
b1011010 #
b1011001 "
#692000
b1011011 #
b1011010 "
#694000
b1011100 #
b1011011 "
#696000
b1011101 #
b1011100 "
#698000
b1011110 #
b1011101 "
#700000
b1011111 #
b1011110 "
#702000
b1100000 #
b1011111 "
#704000
b1100001 #
b1100000 "
#706000
b1100010 #
b1100001 "
#708000
b1100011 #
b1100010 "
#710000
b1100100 #
b1100011 "
#712000
b1100101 #
b1100100 "
#714000
b1100110 #
b1100101 "
#716000
b1100111 #
b1100110 "
#718000
b1101000 #
b1100111 "
#720000
b1101001 #
b1101000 "
#722000
b1101010 #
b1101001 "
#724000
b1101011 #
b1101010 "
#726000
b1101100 #
b1101011 "
#728000
b1101101 #
b1101100 "
#730000
b1101110 #
b1101101 "
#732000
b1101111 #
b1101110 "
#734000
b1110000 #
b1101111 "
#736000
b1110001 #
b1110000 "
#738000
b1110010 #
b1110001 "
#740000
b1110011 #
b1110010 "
#742000
b1110100 #
b1110011 "
#744000
b1110101 #
b1110100 "
#746000
b1110110 #
b1110101 "
#748000
b1110111 #
b1110110 "
#750000
b1111000 #
b1110111 "
#752000
b1111001 #
b1111000 "
#754000
b1111010 #
b1111001 "
#756000
b1111011 #
b1111010 "
#758000
b1111100 #
b1111011 "
#760000
b1111101 #
b1111100 "
#762000
b1111110 #
b1111101 "
#764000
b1111111 #
b1111110 "
#766000
b10000000 #
b1111111 "
#768000
b10000001 #
b10000000 "
#770000
b10000010 #
b10000001 "
#772000
b10000011 #
b10000010 "
#774000
b10000100 #
b10000011 "
#776000
b10000101 #
b10000100 "
#778000
b10000110 #
b10000101 "
#780000
b10000111 #
b10000110 "
#782000
b10001000 #
b10000111 "
#784000
b10001001 #
b10001000 "
#786000
b10001010 #
b10001001 "
#788000
b10001011 #
b10001010 "
#790000
b10001100 #
b10001011 "
#792000
b10001101 #
b10001100 "
#794000
b10001110 #
b10001101 "
#796000
b10001111 #
b10001110 "
#798000
b10010000 #
b10001111 "
#800000
b10010001 #
b10010000 "
#802000
b10010010 #
b10010001 "
#804000
b10010011 #
b10010010 "
#806000
b10010100 #
b10010011 "
#808000
b10010101 #
b10010100 "
#810000
b10010110 #
b10010101 "
#812000
b10010111 #
b10010110 "
#814000
b10011000 #
b10010111 "
#816000
b10011001 #
b10011000 "
#818000
b10011010 #
b10011001 "
#820000
b10011011 #
b10011010 "
#822000
b10011100 #
b10011011 "
#824000
b10011101 #
b10011100 "
#826000
b10011110 #
b10011101 "
#828000
b10011111 #
b10011110 "
#830000
b10100000 #
b10011111 "
#832000
b10100001 #
b10100000 "
#834000
b10100010 #
b10100001 "
#836000
b10100011 #
b10100010 "
#838000
b10100100 #
b10100011 "
#840000
b10100101 #
b10100100 "
#842000
b10100110 #
b10100101 "
#844000
b10100111 #
b10100110 "
#846000
b10101000 #
b10100111 "
#848000
b10101001 #
b10101000 "
#850000
b10101010 #
b10101001 "
#852000
b10101011 #
b10101010 "
#854000
b10101100 #
b10101011 "
#856000
b10101101 #
b10101100 "
#858000
b10101110 #
b10101101 "
#860000
b10101111 #
b10101110 "
#862000
b10110000 #
b10101111 "
#864000
b10110001 #
b10110000 "
#866000
b10110010 #
b10110001 "
#868000
b10110011 #
b10110010 "
#870000
b10110100 #
b10110011 "
#872000
b10110101 #
b10110100 "
#874000
b10110110 #
b10110101 "
#876000
b10110111 #
b10110110 "
#878000
b10111000 #
b10110111 "
#880000
b10111001 #
b10111000 "
#882000
b10111010 #
b10111001 "
#884000
b10111011 #
b10111010 "
#886000
b10111100 #
b10111011 "
#888000
b10111101 #
b10111100 "
#890000
b10111110 #
b10111101 "
#892000
b10111111 #
b10111110 "
#894000
b11000000 #
b10111111 "
#896000
b11000001 #
b11000000 "
#898000
b11000010 #
b11000001 "
#900000
b11000011 #
b11000010 "
#902000
b11000100 #
b11000011 "
#904000
b11000101 #
b11000100 "
#906000
b11000110 #
b11000101 "
#908000
b11000111 #
b11000110 "
#910000
b11001000 #
b11000111 "
#912000
b11001001 #
b11001000 "
#914000
b11001010 #
b11001001 "
#916000
b11001011 #
b11001010 "
#918000
b11001100 #
b11001011 "
#920000
b11001101 #
b11001100 "
#922000
b11001110 #
b11001101 "
#924000
b11001111 #
b11001110 "
#926000
b11010000 #
b11001111 "
#928000
b11010001 #
b11010000 "
#930000
b11010010 #
b11010001 "
#932000
b11010011 #
b11010010 "
#934000
b11010100 #
b11010011 "
#936000
b11010101 #
b11010100 "
#938000
b11010110 #
b11010101 "
#940000
b11010111 #
b11010110 "
#942000
b11011000 #
b11010111 "
#944000
b11011001 #
b11011000 "
#946000
b11011010 #
b11011001 "
#948000
b11011011 #
b11011010 "
#950000
b11011100 #
b11011011 "
#952000
b11011101 #
b11011100 "
#954000
b11011110 #
b11011101 "
#956000
b11011111 #
b11011110 "
#958000
b11100000 #
b11011111 "
#960000
b11100001 #
b11100000 "
#962000
b11100010 #
b11100001 "
#964000
b11100011 #
b11100010 "
#966000
b11100100 #
b11100011 "
#968000
b11100101 #
b11100100 "
#970000
b11100110 #
b11100101 "
#972000
b11100111 #
b11100110 "
#974000
b11101000 #
b11100111 "
#976000
b11101001 #
b11101000 "
#978000
b11101010 #
b11101001 "
#980000
b11101011 #
b11101010 "
#982000
b11101100 #
b11101011 "
#984000
b11101101 #
b11101100 "
#986000
b11101110 #
b11101101 "
#988000
b11101111 #
b11101110 "
#990000
b11110000 #
b11101111 "
#992000
b11110001 #
b11110000 "
#994000
b11110010 #
b11110001 "
#996000
b11110011 #
b11110010 "
#998000
b11110100 #
b11110011 "
#1000000
b11110101 #
b11110100 "
#1002000
b11110110 #
b11110101 "
#1004000
b11110111 #
b11110110 "
#1006000
b11111000 #
b11110111 "
#1008000
b11111001 #
b11111000 "
#1010000
b11111010 #
b11111001 "
#1012000
b11111011 #
b11111010 "
#1014000
b11111100 #
b11111011 "
#1016000
b11111101 #
b11111100 "
#1018000
b11111110 #
b11111101 "
#1020000
b11111111 #
b11111110 "
#1022000
b0 #
b11111111 "
#1024000
b10 #
b10 !
b0 "
#1026000
b11 #
b1 "
#1028000
b100 #
b10 "
#1030000
b101 #
b11 "
#1032000
b110 #
b100 "
#1034000
b111 #
b101 "
#1036000
b1000 #
b110 "
#1038000
b1001 #
b111 "
#1040000
b1010 #
b1000 "
#1042000
b1011 #
b1001 "
#1044000
b1100 #
b1010 "
#1046000
b1101 #
b1011 "
#1048000
b1110 #
b1100 "
#1050000
b1111 #
b1101 "
#1052000
b10000 #
b1110 "
#1054000
b10001 #
b1111 "
#1056000
b10010 #
b10000 "
#1058000
b10011 #
b10001 "
#1060000
b10100 #
b10010 "
#1062000
b10101 #
b10011 "
#1064000
b10110 #
b10100 "
#1066000
b10111 #
b10101 "
#1068000
b11000 #
b10110 "
#1070000
b11001 #
b10111 "
#1072000
b11010 #
b11000 "
#1074000
b11011 #
b11001 "
#1076000
b11100 #
b11010 "
#1078000
b11101 #
b11011 "
#1080000
b11110 #
b11100 "
#1082000
b11111 #
b11101 "
#1084000
b100000 #
b11110 "
#1086000
b100001 #
b11111 "
#1088000
b100010 #
b100000 "
#1090000
b100011 #
b100001 "
#1092000
b100100 #
b100010 "
#1094000
b100101 #
b100011 "
#1096000
b100110 #
b100100 "
#1098000
b100111 #
b100101 "
#1100000
b101000 #
b100110 "
#1102000
b101001 #
b100111 "
#1104000
b101010 #
b101000 "
#1106000
b101011 #
b101001 "
#1108000
b101100 #
b101010 "
#1110000
b101101 #
b101011 "
#1112000
b101110 #
b101100 "
#1114000
b101111 #
b101101 "
#1116000
b110000 #
b101110 "
#1118000
b110001 #
b101111 "
#1120000
b110010 #
b110000 "
#1122000
b110011 #
b110001 "
#1124000
b110100 #
b110010 "
#1126000
b110101 #
b110011 "
#1128000
b110110 #
b110100 "
#1130000
b110111 #
b110101 "
#1132000
b111000 #
b110110 "
#1134000
b111001 #
b110111 "
#1136000
b111010 #
b111000 "
#1138000
b111011 #
b111001 "
#1140000
b111100 #
b111010 "
#1142000
b111101 #
b111011 "
#1144000
b111110 #
b111100 "
#1146000
b111111 #
b111101 "
#1148000
b1000000 #
b111110 "
#1150000
b1000001 #
b111111 "
#1152000
b1000010 #
b1000000 "
#1154000
b1000011 #
b1000001 "
#1156000
b1000100 #
b1000010 "
#1158000
b1000101 #
b1000011 "
#1160000
b1000110 #
b1000100 "
#1162000
b1000111 #
b1000101 "
#1164000
b1001000 #
b1000110 "
#1166000
b1001001 #
b1000111 "
#1168000
b1001010 #
b1001000 "
#1170000
b1001011 #
b1001001 "
#1172000
b1001100 #
b1001010 "
#1174000
b1001101 #
b1001011 "
#1176000
b1001110 #
b1001100 "
#1178000
b1001111 #
b1001101 "
#1180000
b1010000 #
b1001110 "
#1182000
b1010001 #
b1001111 "
#1184000
b1010010 #
b1010000 "
#1186000
b1010011 #
b1010001 "
#1188000
b1010100 #
b1010010 "
#1190000
b1010101 #
b1010011 "
#1192000
b1010110 #
b1010100 "
#1194000
b1010111 #
b1010101 "
#1196000
b1011000 #
b1010110 "
#1198000
b1011001 #
b1010111 "
#1200000
b1011010 #
b1011000 "
#1202000
b1011011 #
b1011001 "
#1204000
b1011100 #
b1011010 "
#1206000
b1011101 #
b1011011 "
#1208000
b1011110 #
b1011100 "
#1210000
b1011111 #
b1011101 "
#1212000
b1100000 #
b1011110 "
#1214000
b1100001 #
b1011111 "
#1216000
b1100010 #
b1100000 "
#1218000
b1100011 #
b1100001 "
#1220000
b1100100 #
b1100010 "
#1222000
b1100101 #
b1100011 "
#1224000
b1100110 #
b1100100 "
#1226000
b1100111 #
b1100101 "
#1228000
b1101000 #
b1100110 "
#1230000
b1101001 #
b1100111 "
#1232000
b1101010 #
b1101000 "
#1234000
b1101011 #
b1101001 "
#1236000
b1101100 #
b1101010 "
#1238000
b1101101 #
b1101011 "
#1240000
b1101110 #
b1101100 "
#1242000
b1101111 #
b1101101 "
#1244000
b1110000 #
b1101110 "
#1246000
b1110001 #
b1101111 "
#1248000
b1110010 #
b1110000 "
#1250000
b1110011 #
b1110001 "
#1252000
b1110100 #
b1110010 "
#1254000
b1110101 #
b1110011 "
#1256000
b1110110 #
b1110100 "
#1258000
b1110111 #
b1110101 "
#1260000
b1111000 #
b1110110 "
#1262000
b1111001 #
b1110111 "
#1264000
b1111010 #
b1111000 "
#1266000
b1111011 #
b1111001 "
#1268000
b1111100 #
b1111010 "
#1270000
b1111101 #
b1111011 "
#1272000
b1111110 #
b1111100 "
#1274000
b1111111 #
b1111101 "
#1276000
b10000000 #
b1111110 "
#1278000
b10000001 #
b1111111 "
#1280000
b10000010 #
b10000000 "
#1282000
b10000011 #
b10000001 "
#1284000
b10000100 #
b10000010 "
#1286000
b10000101 #
b10000011 "
#1288000
b10000110 #
b10000100 "
#1290000
b10000111 #
b10000101 "
#1292000
b10001000 #
b10000110 "
#1294000
b10001001 #
b10000111 "
#1296000
b10001010 #
b10001000 "
#1298000
b10001011 #
b10001001 "
#1300000
b10001100 #
b10001010 "
#1302000
b10001101 #
b10001011 "
#1304000
b10001110 #
b10001100 "
#1306000
b10001111 #
b10001101 "
#1308000
b10010000 #
b10001110 "
#1310000
b10010001 #
b10001111 "
#1312000
b10010010 #
b10010000 "
#1314000
b10010011 #
b10010001 "
#1316000
b10010100 #
b10010010 "
#1318000
b10010101 #
b10010011 "
#1320000
b10010110 #
b10010100 "
#1322000
b10010111 #
b10010101 "
#1324000
b10011000 #
b10010110 "
#1326000
b10011001 #
b10010111 "
#1328000
b10011010 #
b10011000 "
#1330000
b10011011 #
b10011001 "
#1332000
b10011100 #
b10011010 "
#1334000
b10011101 #
b10011011 "
#1336000
b10011110 #
b10011100 "
#1338000
b10011111 #
b10011101 "
#1340000
b10100000 #
b10011110 "
#1342000
b10100001 #
b10011111 "
#1344000
b10100010 #
b10100000 "
#1346000
b10100011 #
b10100001 "
#1348000
b10100100 #
b10100010 "
#1350000
b10100101 #
b10100011 "
#1352000
b10100110 #
b10100100 "
#1354000
b10100111 #
b10100101 "
#1356000
b10101000 #
b10100110 "
#1358000
b10101001 #
b10100111 "
#1360000
b10101010 #
b10101000 "
#1362000
b10101011 #
b10101001 "
#1364000
b10101100 #
b10101010 "
#1366000
b10101101 #
b10101011 "
#1368000
b10101110 #
b10101100 "
#1370000
b10101111 #
b10101101 "
#1372000
b10110000 #
b10101110 "
#1374000
b10110001 #
b10101111 "
#1376000
b10110010 #
b10110000 "
#1378000
b10110011 #
b10110001 "
#1380000
b10110100 #
b10110010 "
#1382000
b10110101 #
b10110011 "
#1384000
b10110110 #
b10110100 "
#1386000
b10110111 #
b10110101 "
#1388000
b10111000 #
b10110110 "
#1390000
b10111001 #
b10110111 "
#1392000
b10111010 #
b10111000 "
#1394000
b10111011 #
b10111001 "
#1396000
b10111100 #
b10111010 "
#1398000
b10111101 #
b10111011 "
#1400000
b10111110 #
b10111100 "
#1402000
b10111111 #
b10111101 "
#1404000
b11000000 #
b10111110 "
#1406000
b11000001 #
b10111111 "
#1408000
b11000010 #
b11000000 "
#1410000
b11000011 #
b11000001 "
#1412000
b11000100 #
b11000010 "
#1414000
b11000101 #
b11000011 "
#1416000
b11000110 #
b11000100 "
#1418000
b11000111 #
b11000101 "
#1420000
b11001000 #
b11000110 "
#1422000
b11001001 #
b11000111 "
#1424000
b11001010 #
b11001000 "
#1426000
b11001011 #
b11001001 "
#1428000
b11001100 #
b11001010 "
#1430000
b11001101 #
b11001011 "
#1432000
b11001110 #
b11001100 "
#1434000
b11001111 #
b11001101 "
#1436000
b11010000 #
b11001110 "
#1438000
b11010001 #
b11001111 "
#1440000
b11010010 #
b11010000 "
#1442000
b11010011 #
b11010001 "
#1444000
b11010100 #
b11010010 "
#1446000
b11010101 #
b11010011 "
#1448000
b11010110 #
b11010100 "
#1450000
b11010111 #
b11010101 "
#1452000
b11011000 #
b11010110 "
#1454000
b11011001 #
b11010111 "
#1456000
b11011010 #
b11011000 "
#1458000
b11011011 #
b11011001 "
#1460000
b11011100 #
b11011010 "
#1462000
b11011101 #
b11011011 "
#1464000
b11011110 #
b11011100 "
#1466000
b11011111 #
b11011101 "
#1468000
b11100000 #
b11011110 "
#1470000
b11100001 #
b11011111 "
#1472000
b11100010 #
b11100000 "
#1474000
b11100011 #
b11100001 "
#1476000
b11100100 #
b11100010 "
#1478000
b11100101 #
b11100011 "
#1480000
b11100110 #
b11100100 "
#1482000
b11100111 #
b11100101 "
#1484000
b11101000 #
b11100110 "
#1486000
b11101001 #
b11100111 "
#1488000
b11101010 #
b11101000 "
#1490000
b11101011 #
b11101001 "
#1492000
b11101100 #
b11101010 "
#1494000
b11101101 #
b11101011 "
#1496000
b11101110 #
b11101100 "
#1498000
b11101111 #
b11101101 "
#1500000
b11110000 #
b11101110 "
#1502000
b11110001 #
b11101111 "
#1504000
b11110010 #
b11110000 "
#1506000
b11110011 #
b11110001 "
#1508000
b11110100 #
b11110010 "
#1510000
b11110101 #
b11110011 "
#1512000
b11110110 #
b11110100 "
#1514000
b11110111 #
b11110101 "
#1516000
b11111000 #
b11110110 "
#1518000
b11111001 #
b11110111 "
#1520000
b11111010 #
b11111000 "
#1522000
b11111011 #
b11111001 "
#1524000
b11111100 #
b11111010 "
#1526000
b11111101 #
b11111011 "
#1528000
b11111110 #
b11111100 "
#1530000
b11111111 #
b11111101 "
#1532000
b0 #
b11111110 "
#1534000
b1 #
b11111111 "
#1536000
b11 #
b11 !
b0 "
#1538000
b100 #
b1 "
#1540000
b101 #
b10 "
#1542000
b110 #
b11 "
#1544000
b111 #
b100 "
#1546000
b1000 #
b101 "
#1548000
b1001 #
b110 "
#1550000
b1010 #
b111 "
#1552000
b1011 #
b1000 "
#1554000
b1100 #
b1001 "
#1556000
b1101 #
b1010 "
#1558000
b1110 #
b1011 "
#1560000
b1111 #
b1100 "
#1562000
b10000 #
b1101 "
#1564000
b10001 #
b1110 "
#1566000
b10010 #
b1111 "
#1568000
b10011 #
b10000 "
#1570000
b10100 #
b10001 "
#1572000
b10101 #
b10010 "
#1574000
b10110 #
b10011 "
#1576000
b10111 #
b10100 "
#1578000
b11000 #
b10101 "
#1580000
b11001 #
b10110 "
#1582000
b11010 #
b10111 "
#1584000
b11011 #
b11000 "
#1586000
b11100 #
b11001 "
#1588000
b11101 #
b11010 "
#1590000
b11110 #
b11011 "
#1592000
b11111 #
b11100 "
#1594000
b100000 #
b11101 "
#1596000
b100001 #
b11110 "
#1598000
b100010 #
b11111 "
#1600000
b100011 #
b100000 "
#1602000
b100100 #
b100001 "
#1604000
b100101 #
b100010 "
#1606000
b100110 #
b100011 "
#1608000
b100111 #
b100100 "
#1610000
b101000 #
b100101 "
#1612000
b101001 #
b100110 "
#1614000
b101010 #
b100111 "
#1616000
b101011 #
b101000 "
#1618000
b101100 #
b101001 "
#1620000
b101101 #
b101010 "
#1622000
b101110 #
b101011 "
#1624000
b101111 #
b101100 "
#1626000
b110000 #
b101101 "
#1628000
b110001 #
b101110 "
#1630000
b110010 #
b101111 "
#1632000
b110011 #
b110000 "
#1634000
b110100 #
b110001 "
#1636000
b110101 #
b110010 "
#1638000
b110110 #
b110011 "
#1640000
b110111 #
b110100 "
#1642000
b111000 #
b110101 "
#1644000
b111001 #
b110110 "
#1646000
b111010 #
b110111 "
#1648000
b111011 #
b111000 "
#1650000
b111100 #
b111001 "
#1652000
b111101 #
b111010 "
#1654000
b111110 #
b111011 "
#1656000
b111111 #
b111100 "
#1658000
b1000000 #
b111101 "
#1660000
b1000001 #
b111110 "
#1662000
b1000010 #
b111111 "
#1664000
b1000011 #
b1000000 "
#1666000
b1000100 #
b1000001 "
#1668000
b1000101 #
b1000010 "
