Draft_Phuong/Encaps/Modulo3Unit/dump.vcd
$date
	Mon Oct 18 13:38:12 2021
$end
$version
	Icarus Verilog
$end
$timescale
	1ps
$end
$scope module testbench $end
$var wire 16 ! bits [16:1] $end
$var wire 1 " clk $end
$var wire 1 # ovr_rst $end
$var wire 20 $ rm [19:0] $end
$var wire 1 % p3_rst2 $end
$var wire 1 & p3_rst1 $end
$var wire 2 ' p3_count [1:0] $end
$var wire 4 ( mod3 [3:0] $end
$var wire 1 ) hash_sp $end
$var wire 1 * hash_rst2 $end
$var wire 1 + hash_rst1 $end
$var wire 1 , hash_keccak $end
$var wire 1 - hash_fin $end
$var wire 1 . hash_clk $end
$var wire 1 / hash_ans $end
$var wire 1 0 fifo2_stop $end
$var wire 1 1 fifo2_rst $end
$var wire 1 2 fifo2_en $end
$var wire 1 3 fifo1_rst $end
$var wire 1 4 fifo1_en $end
$upscope $end
$scope module testbench $end
$upscope $end
$enddefinitions $end
#0
$dumpvars
14
x3
x2
x1
00
x/
x.
0-
x,
0+
x*
x)
bx (
bx '
x&
x%
bx $
1#
1"
bz !
$end
#500
04
0"
#1000
0%
0.
02
1&
13
b0 '
14
1"
#1100
0#
#1500
04
0"
#2000
b0 (
b1010111001110010 !
0*
0)
0/
11
0,
1%
1.
12
0&
03
b1 '
14
1"
#2500
04
0"
#3000
0%
b0 '
b0xxxxxxxxxxxxxxxx $
b11 (
b110111111101100 !
14
1"
#3500
04
0"
#4000
b1 '
b110000xxxxxxxxxxxx $
b0 (
b11001101111110 !
14
1"
#4500
04
0"
#5000
0.
02
b10 '
b110000xxxxxxxx $
b1101 (
b111110101010010 !
14
1"
#5500
04
0"
#6000
1&
13
b0 '
b1101000000110000xxxx $
b1100 (
b1101001110010 !
14
1"
#6500
04
0"
#7000
1)
01
1,
1%
1.
12
0&
03
b1 '
b11001101000000110000 $
b111 (
b111100100111000 !
14
1"
#7500
04
0"
#8000
0%
b0 '
b1111100110100000011 $
b1 (
b10110100000111 !
14
1"
#8500
04
0"
#9000
b1 '
b10111110011010000 $
b11 (
b1001110011011010 !
14
1"
#9500
04
0"
#10000
0.
02
b10 '
b110001011111001101 $
b0 (
b1001110011001001 !
14
1"
#10500
04
0"
#11000
1&
13
b0 '
b11000101111100 $
b1101 (
b10110001011 !
14
1"
#11500
04
0"
#12000
0,
1%
1.
12
0&
03
b1 '
b11010000001100010111 $
b11 (
b1011011110110110 !
14
1"
#12500
04
0"
#13000
0%
b0 '
b111101000000110001 $
b101 (
b10010101000000 !
14
1"
#13500
04
0"
#14000
b1 '
b1010011110100000011 $
b1100 (
b1100001000010101 !
14
1"
#14500
04
0"
#15000
0.
02
b10 '
b11000101001111010000 $
b101 (
b110110101011110 !
14
1"
#15500
04
0"
#16000
1&
13
b0 '
b1011100010100111101 $
b1 (
b1111011000000001 !
14
1"
#16500
04
0"
#17000
0)
1,
1%
1.
12
0&
03
b1 '
b10101110001010011 $
b100 (
b1101111110111101 !
14
1"
#17500
04
0"
#18000
0%
b0 '
b1000001010111000101 $
b1111 (
b1111100011101100 !
14
1"
#18500
04
0"
#19000
b1 '
b11110100000101011100 $
b1 (
b1001000001010 !
14
1"
#19500
04
0"
#20000
0.
02
b10 '
b11111010000010101 $
b1100 (
b1110001101000010 !
14
1"
#20500
04
0"
#21000
1&
13
b0 '
b11000001111101000001 $
b1111 (
b1001101110110110 !
14
1"
#21500
04
0"
#22000
1*
0,
1%
1.
12
0&
03
b1 '
b11111100000111110100 $
b1100 (
b101111100001100 !
14
1"
#22500
04
0"
#23000
0%
b0 '
b11001111110000011111 $
b111 (
b11100101001 !
14
1"
#23500
04
0"
#24000
b1 '
b1111100111111000001 $
b0 (
b1000010010101110 !
14
1"
#24500
04
0"
#25000
0.
02
b10 '
b111110011111100 $
b1100 (
b101111111110000 !
14
1"
#25500
04
0"
#26000
1&
13
b0 '
b11000000011111001111 $
b1101 (
b1111101100100010 !
14
1"
#26500
04
0"
#27000
0*
1,
1%
1.
12
0&
03
b1 '
b11011100000001111100 $
b11 (
b10101001011001 !
14
1"
#27500
04
0"
#28000
0%
b0 '
b111101110000000111 $
b11 (
b1110011100010111 !
14
1"
#28500
04
0"
#29000
b1 '
b110011110111000000 $
b111 (
b110110111100110 !
14
1"
#29500
04
0"
#30000
0.
02
b10 '
b1110011001111011100 $
b1 (
b1100100101110011 !
14
1"
#30500
04
0"
#31000
1&
13
b0 '
b10111001100111101 $
b101 (
b1110101101101010 !
14
1"
#31500
04
0"
#32000
0,
1%
1.
12
0&
03
b1 '
b1010001011100110011 $
b1101 (
b1111101101010101 !
14
1"
#32500
04
0"
#33000
0%
b0 '
b11010101000101110011 $
b1 (
b100100000001101 !
14
1"
#33500
04
0"
#34000
b1 '
b11101010100010111 $
b11 (
b11111110100100 !
14
1"
#34500
04
0"
#35000
0.
02
b10 '
b110001110101010001 $
b100 (
b101101111101101 !
14
1"
#35500
04
0"
#36000
1&
13
b0 '
b1000011000111010101 $
b1100 (
b1111111011110011 !
14
1"
#36500
04
0"
#37000
1,
1%
1.
12
0&
03
b1 '
b11000100001100011101 $
b0 (
b1001111111111111 !
14
1"
#37500
04
0"
#38000
0%
b0 '
b1100010000110001 $
b11 (
b1010001000010100 !
14
1"
#38500
04
0"
#39000
b1 '
b110000110001000011 $
b0 (
b1010101101101111 !
14
1"
#39500
04
0"
#40000
0.
02
b10 '
b11000011000100 $
b1111 (
b11111010010101 !
14
1"
#40500
04
0"
#41000
1&
13
b0 '
b11110000001100001100 $
b1101 (
b111110101001001 !
14
1"
#41500
04
0"
#42000
0,
1%
1.
12
0&
03
b1 '
b11011111000000110000 $
b100 (
b1000010111000000 !
14
1"
#42500
04
0"
#43000
0%
b0 '
b1001101111100000011 $
b1111 (
b10110000111011 !
14
1"
#43500
04
0"
#44000
b1 '
b11110100110111110000 $
b100 (
b1100101011110110 !
14
1"
#44500
04
0"
#45000
0.
02
b10 '
b1001111010011011111 $
b111 (
b10101101011111 !
14
1"
#45500
04
0"
#46000
1&
13
b0 '
b1110100111101001101 $
b1110111001011111 !
14
1"
#46500
04
0"
#47000
1,
1%
1.
12
0&
03
b1 '
b1110111010011110100 $
b101 (
b1001010011011001 !
14
1"
#47500
04
0"
#48000
0%
b0 '
b1010111011101001111 $
b100 (
b1001101000010 !
14
1"
#48500
04
0"
#49000
b1 '
b1000101011101110100 $
b11 (
b10010010101101 !
14
1"
#49500
04
0"
#50000
0.
02
b10 '
b110100010101110111 $
b111 (
b1110101110100111 !
14
1"
#50500
04
0"
#51000
1&
13
b0 '
b1110011010001010111 $
b100 (
b1111101000111001 !
14
1"
#51500
04
0"
#52000
0,
1%
1.
12
0&
03
b1 '
b1000111001101000101 $
b1 (
b1101010111000100 !
14
1"
#52500
04
0"
#53000
0%
b0 '
b10100011100110100 $
b1100 (
b1001010100011011 !
14
1"
#53500
04
0"
#54000
b1 '
b11000001010001110011 $
b1101 (
b1100001001101101 !
14
1"
#54500
04
0"
#55000
0.
02
b10 '
b11011100000101000111 $
b0 (
b1001100100111111 !
14
1"
#55500
04
0"
#56000
1&
13
b0 '
b1101110000010100 $
b1111 (
b11101101001010 !
14
1"
#56500
04
0"
#57000
1,
1%
1.
12
0&
03
b1 '
b11110000110111000001 $
b1101 (
b110101101011000 !
14
1"
#57500
04
0"
#58000
0%
b0 '
b11011111000011011100 $
b1111 (
b110100011011101 !
14
1"
#58500
04
0"
#59000
b1 '
b11111101111100001101 $
b100 (
b100110001111011 !
14
1"
#59500
04
0"
#60000
0.
02
b10 '
b1001111110111110000 $
b111 (
b1111010010100001 !
14
1"
#60500
04
0"
#61000
1&
13
b0 '
b1110100111111011111 $
b1 (
b1100110001001111 !
14
1"
#61500
04
0"
#62000
0,
1%
1.
12
0&
03
b1 '
b10111010011111101 $
b101 (
b10101110111011 !
14
1"
#62500
04
0"
#63000
0%
b0 '
b1010001011101001111 $
b1111 (
b101111111011 !
14
1"
#63500
04
0"
#64000
b1 '
b11110101000101110100 $
b111 (
b101111010110011 !
14
1"
#64500
04
0"
#65000
0.
02
b10 '
b1111111010100010111 $
b1100 (
b1000011001001011 !
14
1"
#65500
04
0"
#66000
1&
13
b0 '
b11000111111101010001 $
b1111 (
b111001011111 !
14
1"
#66500
04
0"
#67000
1,
1%
1.
12
0&
03
b1 '
b11111100011111110101 $
b1100 (
b100110111110011 !
14
1"
#67500
04
0"
#68000
0%
b0 '
b11001111110001111111 $
b1 (
b1110010011101000 !
14
1"
#68500
04
0"
#69000
b1 '
b11100111111000111 $
b1111 (
b10100000101 !
14
1"
#69500
04
0"
#70000
0.
02
b10 '
b11110001110011111100 $
b1100 (
b1000001111011110 !
14
1"
#70500
04
0"
#71000
1&
13
b0 '
b11001111000111001111 $
b1101 (
b1110000011100101 !
14
1"
#71500
04
0"
#72000
0,
1%
1.
12
0&
03
b1 '
b11011100111100011100 $
b11 (
b110011011111000 !
14
1"
#72500
04
0"
#73000
0%
b0 '
b111101110011110001 $
b1100 (
b1101010011001 !
14
1"
#73500
04
0"
#74000
b1 '
b11000011110111001111 $
b1101 (
b110010101111001 !
14
1"
#74500
04
0"
#75000
0.
02
b10 '
b11011100001111011100 $
b111 (
b1011001010001100 !
14
1"
#75500
04
0"
#76000
1&
13
b0 '
b1111101110000111101 $
b11 (
b1101101110001 !
14
1"
#76500
04
0"
#77000
1,
1%
1.
12
0&
03
b1 '
b110111110111000011 $
b1101 (
b101110010111011 !
14
1"
#77500
04
0"
#78000
0%
b0 '
b11010011011111011100 $
b1101 (
b1001010111101011 !
14
1"
#78500
04
0"
#79000
b1 '
b11011101001101111101 $
b111 (
b1011001011010100 !
14
1"
#79500
04
0"
#80000
0.
02
b10 '
b1111101110100110111 $
b100 (
b1101110000010010 !
14
1"
#80500
04
0"
#81000
1&
13
b0 '
b1000111110111010011 $
b1100 (
b1010101000110000 !
14
1"
#81500
04
0"
#82000
0,
1%
1.
12
0&
03
b1 '
b11000100011111011101 $
b1111 (
b110111000010111 !
14
1"
#82500
04
0"
#83000
0%
b0 '
b11111100010001111101 $
b1100 (
b101110100101 !
14
1"
#83500
04
0"
#84000
b1 '
b11001111110001000111 $
b1 (
b1100010011101 !
14
1"
#84500
04
0"
#85000
0.
02
b10 '
b11100111111000100 $
b1 (
b110111100101011 !
14
1"
#85500
04
0"
#86000
1&
13
b0 '
b10001110011111100 $
b11 (
b1101111000101100 !
14
1"
#86500
04
0"
#87000
1,
1%
1.
12
0&
03
b1 '
b110001000111001111 $
b1111 (
b1011101111101 !
14
1"
#87500
04
0"
#88000
0%
b0 '
b11110011000100011100 $
b1 (
b1010111000110001 !
14
1"
#88500
04
0"
#89000
b1 '
b11111001100010001 $
b101 (
b1011100011100010 !
14
1"
#89500
04
0"
#90000
0.
02
b10 '
b1010001111100110001 $
b0 (
b1101101001 !
14
1"
#90500
04
0"
#91000
1&
13
b0 '
b101000111110011 $
b11 (
b1000011101101011 !
14
1"
#91500
04
0"
#92000
0,
1%
1.
12
0&
03
b1 '
b110000010100011111 $
b1100 (
b1000001100001111 !
14
1"
#92500
04
0"
#93000
0%
b0 '
b11000011000001010001 $
b11 (
b11000011101001 !
14
1"
#93500
04
0"
#94000
b1 '
b111100001100000101 $
b11 (
b1001110011011101 !
14
1"
#94500
04
0"
#95000
0.
02
b10 '
b110011110000110000 $
b11 (
b1001001101011 !
14
1"
#95500
04
0"
#96000
1&
13
b0 '
b110011001111000011 $
b1101 (
b100000111110001 !
14
1"
#96500
04
0"
#97000
1,
1%
1.
12
0&
03
b1 '
b11010011001100111100 $
b1111 (
b101110010011011 !
14
1"
#97500
04
0"
#98000
0%
b0 '
b11111101001100110011 $
b11 (
b1010110010101 !
14
1"
#98500
04
0"
#99000
b1 '
b111111110100110011 $
b101 (
b1101111100101000 !
14
1"
#99500
04
0"
#100000
0.
02
b10 '
b1010011111111010011 $
b1111 (
b111110101110001 !
14
1"
#100500
04
0"
#101000
1&
13
b0 '
b11110101001111111101 $
b0 (
b1111110001101111 !
14
1"
#101500
04
0"
#102000
0,
1%
1.
12
0&
03
b1 '
b1111010100111111 $
b100 (
b1000111001011101 !
14
1"
#102500
04
0"
#103000
0%
b0 '
b1000000111101010011 $
b11 (
b1001000001001010 !
14
1"
#103500
04
0"
#104000
b1 '
b110100000011110101 $
b100 (
b1000001001110101 !
14
1"
#104500
04
0"
#105000
0.
02
b10 '
b1000011010000001111 $
b1 (
b111001001111001 !
14
1"
#105500
04
0"
#106000
1&
13
b0 '
b10100001101000000 $
b1100 (
b10000001110010 !
14
1"
#106500
04
0"
#107000
1,
1%
1.
12
0&
03
b1 '
b11000001010000110100 $
b1111 (
b1010101011011010 !
14
1"
#107500
04
0"
#108000
0%
b0 '
b11111100000101000011 $
b100 (
b1000001000111001 !
14
1"
#108500
04
0"
#109000
b1 '
b1001111110000010100 $
b0 (
b1001011011001001 !
14
1"
#109500
04
0"
#110000
0.
02
b10 '
b100111111000001 $
b1101 (
b10111111000111 !
14
1"
#110500
04
0"
#111000
1&
13
b0 '
b11010000010011111100 $
b1100 (
b1111001001101001 !
14
1"
#111500
04
0"
#112000
0,
1%
1.
12
0&
03
b1 '
b11001101000001001111 $
b101 (
b11110111010011 !
14
1"
#112500
04
0"
#113000
0%
b0 '
b1011100110100000100 $
b101 (
b110011100101110 !
14
1"
#113500
04
0"
#114000
b1 '
b1010101110011010000 $
b1 (
b1010111100010 !
14
1"
#114500
04
0"
#115000
0.
02
b10 '
b10101010111001101 $
b101 (
b101111001110011 !
14
1"
#115500
04
0"
#116000
1&
13
b0 '
b1010001010101011100 $
b11 (
b1001001100010 !
14
1"
#116500
04
0"
#117000
1,
1%
1.
12
0&
03
b1 '
b110101000101010101 $
b1111 (
b1000000001001101 !
14
1"
#117500
04
0"
#118000
0%
b0 '
b11110011010100010101 $
b101 (
b1011011100010 !
14
1"
#118500
04
0"
#119000
b1 '
b1011111001101010001 $
b1100 (
b100000111000011 !
14
1"
#119500
04
0"
#120000
0.
02
b10 '
b11000101111100110101 $
b111 (
b1111100101100 !
14
1"
#120500
04
0"
#121000
1&
13
b0 '
b1111100010111110011 $
b0 (
b101010010011001 !
14
1"
#121500
04
0"
#122000
0,
1%
1.
12
0&
03
b1 '
b111110001011111 $
b111 (
b1101110010111111 !
14
1"
#122500
04
0"
#123000
0%
b0 '
b1110000011111000101 $
b101 (
b100100110001000 !
14
1"
#123500
04
0"
#124000
b1 '
b1010111000001111100 $
b11 (
b100001011001000 !
14
1"
#124500
04
0"
#125000
0.
02
b10 '
b110101011100000111 $
b1 (
b1111110001000110 !
14
1"
#125500
04
0"
#126000
1&
13
b0 '
b10011010101110000 $
b1101 (
b1010110111110111 !
14
1"
#126500
04
0"
#127000
1,
1%
1.
12
0&
03
b1 '
b11010001001101010111 $
b1100 (
b1010010001011010 !
14
1"
#127500
04
0"
#128000
0%
b0 '
b11001101000100110101 $
b0 (
b1110000110100010 !
14
1"
#128500
04
0"
#129000
b1 '
b1100110100010011 $
b11 (
b11010101010 !
14
1"
#129500
04
0"
#130000
0.
02
b10 '
b110000110011010001 $
b1111 (
b1010110110100100 !
14
1"
#130500
04
0"
#131000
1&
13
b0 '
b11110011000011001101 $
b1111 (
b1000110100001 !
14
1"
#131500
04
0"
#132000
0,
1%
1.
12
0&
03
b1 '
b11111111001100001100 $
b11 (
b11001111101 !
14
1"
#132500
04
0"
#133000
0%
b0 '
b111111111100110000 $
b1101 (
b1010110101100001 !
14
1"
#133500
04
0"
#134000
b1 '
b11010011111111110011 $
b11 (
b11000000000010 !
14
1"
#134500
04
0"
#135000
0.
02
b10 '
b111101001111111111 $
b1100 (
b110100000101101 !
14
1"
#135500
04
0"
#136000
1&
13
b0 '
b11000011110100111111 $
b11 (
b1111110000000010 !
14
1"
#136500
04
0"
#137000
1,
1%
1.
12
0&
03
b1 '
b111100001111010011 $
b1100 (
b1001111010000001 !
14
1"
#137500
04
0"
#138000
0%
b0 '
b11000011110000111101 $
b110001001000101 !
14
1"
#138500
04
0"
#139000
b1 '
b11001100001111000011 $
b0 (
b11111100000011 !
14
1"
#139500
04
0"
#140000
0.
02
b10 '
b1100110000111100 $
b1111 (
b101011010110011 !
14
1"
#140500
04
0"
#141000
1&
13
b0 '
b11110000110011000011 $
b1111 (
b110101111010001 !
14
1"
#141500
04
0"
#142000
0,
1%
1.
12
0&
03
b1 '
b11111111000011001100 $
b111 (
b10011000010 !
14
1"
#142500
04
0"
#143000
0%
b0 '
b1111111111100001100 $
b0 (
b1100100101010111 !
14
1"
#143500
04
0"
#144000
b1 '
b111111111110000 $
b101 (
b10101110010100 !
14
1"
#144500
04
0"
#145000
0.
02
b10 '
b1010000011111111111 $
b1111 (
b1110001100110101 !
14
1"
#145500
04
0"
#146000
1&
13
b0 '
b11110101000001111111 $
b100 (
b1100101001110 !
14
1"
#146500
04
0"
#147000
1,
1%
1.
12
0&
03
b1 '
b1001111010100000111 $
b111 (
b111100101011100 !
14
1"
#147500
04
0"
#148000
0%
b0 '
b1110100111101010000 $
b100 (
b1001000100110110 !
14
1"
#148500
04
0"
#149000
b1 '
b1000111010011110101 $
b1 (
b1001011000001010 !
14
1"
#149500
04
0"
#150000
0.
02
b10 '
b10100011101001111 $
b11 (
b100001010111100 !
14
1"
#150500
04
0"
#151000
1&
13
b0 '
b110001010001110100 $
b10010001011001 !
14
1"
#151500
04
0"
#152000
1/
0,
1%
1.
12
0&
03
b1 '
b110011000101000111 $
b1101 (
b1101110110110010 !
14
1"
#152500
04
0"
#153000
0%
b0 '
b11010011001100010100 $
b100 (
b10010110000100 !
14
1"
#153500
04
0"
#154000
b1 '
b1001101001100110001 $
b101 (
b1100101000010000 !
14
1"
#154500
04
0"
#155000
0.
02
b10 '
b1010100110100110011 $
b11 (
b110110010101101 !
14
1"
#155500
04
0"
#156000
1&
13
b0 '
b110101010011010011 $
b1100 (
b1000110011 !
14
1"
#156500
04
0"
#157000
0/
1,
1%
1.
12
0&
03
b1 '
b11000011010101001101 $
b1101 (
b111011111111010 !
14
1"
#157500
04
0"
#158000
0%
b0 '
b11011100001101010100 $
b100 (
b11100100100 !
14
1"
#158500
04
0"
#159000
b1 '
b1001101110000110101 $
b1101 (
b1100101100000100 !
14
1"
#159500
04
0"
#160000
0.
02
b10 '
b11010100110111000011 $
b100 (
b11101000001111 !
14
1"
#160500
04
0"
#161000
1&
13
b0 '
b1001101010011011100 $
b1 (
b1101001001000110 !
14
1"
#161500
04
0"
#162000
0,
1%
1.
12
0&
03
b1 '
b10100110101001101 $
b1111011000001010 !
14
1"
#162500
04
0"
#163000
0%
b0 '
b10001010011010100 $
b0 (
b111101100001100 !
14
1"
#163500
04
0"
#164000
b1 '
b1000101001101 $
b1101100110110 !
14
1"
#164500
04
0"
#165000
0.
02
b10 '
b100010100 $
b111 (
b101101100010001 !
14
1"
#165500
04
0"
#166000
1&
13
b0 '
b1110000000000010001 $
b0 (
b10101011000000 !
14
1"
#166500
04
0"
#167000
1,
1%
1.
12
0&
03
b1 '
b111000000000001 $
b11 (
b110100101110001 !
14
1"
#167500
04
0"
#168000
0%
b0 '
b110000011100000000 $
b0 (
b1110101001111110 !
14
1"
#168500
04
0"
#169000
b1 '
b11000001110000 $
b1 (
b1011110110101100 !
14
1"
#169500
04
0"
#170000
0.
02
b10 '
b10000001100000111 $
b1111 (
b1001001011010111 !
14
1"
#170500
04
0"
#171000
1&
13
b0 '
b11110001000000110000 $
b1100 (
b1110111100110000 !
14
1"
#171500
04
0"
#172000
0,
1%
1.
12
0&
03
b1 '
b11001111000100000011 $
b100 (
b1011100010010011 !
14
1"
#172500
04
0"
#173000
0%
b0 '
b1001100111100010000 $
b11 (
b100111010101101 !
14
1"
#173500
04
0"
#174000
b1 '
b110100110011110001 $
b101 (
b11000101000011 !
14
1"
#174500
04
0"
#175000
0.
02
b10 '
b1010011010011001111 $
b1 (
b1011110111100101 !
14
1"
#175500
04
0"
#176000
1&
13
b0 '
b10101001101001100 $
b1 (
b100100010110 !
14
1"
#176500
04
0"
#177000
1,
1%
1.
12
0&
03
b1 '
b10001010100110100 $
b11 (
b1010111010100100 !
14
1"
#177500
04
0"
#178000
0%
b0 '
b110001000101010011 $
b1111 (
b1101110100111000 !
14
1"
#178500
04
0"
#179000
b1 '
b11110011000100010101 $
b1111 (
b111011110001100 !
14
1"
#179500
04
0"
#180000
0.
02
b10 '
b11111111001100010001 $
b100 (
b1010100110001101 !
14
1"
#180500
04
0"
#181000
1&
13
b0 '
b1001111111100110001 $
b1 (
b101011101110000 !
14
1"
#181500
04
0"
#182000
0,
1%
1.
12
0&
03
b1 '
b10100111111110011 $
b1111 (
b1110000011101100 !
14
1"
#182500
04
0"
#183000
0%
b0 '
b11110001010011111111 $
b1100 (
b111010001010100 !
14
1"
#183500
04
0"
#184000
b1 '
b11001111000101001111 $
b111 (
b10010011110 !
14
1"
#184500
04
0"
#185000
0.
02
b10 '
b1111100111100010100 $
b101 (
b110101001000110 !
14
1"
#185500
04
0"
#186000
1&
13
b0 '
b1010111110011110001 $
b1101 (
b111000101110110 !
14
1"
#186500
04
0"
#187000
1,
1%
1.
12
0&
03
b1 '
b11010101011111001111 $
b100 (
b10001000000110 !
14
1"
#187500
04
0"
#188000
0%
b0 '
b1001101010101111100 $
b0 (
b1100111111111100 !
14
1"
#188500
04
0"
#189000
b1 '
b100110101010111 $
b11 (
b1010111010010101 !
14
1"
#189500
04
0"
#190000
0.
02
b10 '
b110000010011010101 $
b1111 (
b1111001000001110 !
14
1"
#190500
04
0"
#191000
1&
13
b0 '
b11110011000001001101 $
b100 (
b11101010001010 !
14
1"
#191500
04
0"
#192000
0,
1%
1.
12
0&
03
b1 '
b1001111001100000100 $
b111 (
b1100110000011 !
14
1"
#192500
04
0"
#193000
0%
b0 '
b1110100111100110000 $
b111 (
b11000100010100 !
14
1"
#193500
04
0"
#194000
b1 '
b1110111010011110011 $
b0 (
b111010100010010 !
14
1"
#194500
04
0"
#195000
0.
02
b10 '
b111011101001111 $
b11 (
b1101010111011010 !
14
1"
#195500
04
0"
#196000
1&
13
b0 '
b110000011101110100 $
b0 (
b101000111011011 !
14
1"
#196500
04
0"
#197000
1,
1%
1.
12
0&
03
b1 '
b11000001110111 $
b1 (
b1101010100101000 !
14
1"
#197500
04
0"
#198000
0%
b0 '
b10000001100000111 $
b100 (
b10100000110000 !
14
1"
#198500
04
0"
#199000
b1 '
b1000001000000110000 $
b101 (
b11101001110011 !
14
1"
#199500
04
0"
#200000
0.
02
b10 '
b1010100000100000011 $
b100 (
b1010110011100100 !
14
1"
#200500
04
0"
#201000
1&
13
b0 '
b1000101010000010000 $
b0 (
b111101110011111 !
14
1"
#201500
04
0"
#202000
0,
1%
1.
12
0&
03
b1 '
b100010101000001 $
b100100000011 !
14
1"
#202500
04
0"
#203000
0%
b0 '
b10001010100 $
b1100 (
b1001100000001111 !
14
1"
#203500
04
0"
#204000
b1 '
b11000000000001000101 $
b1101 (
b1000110101111 !
14
1"
#204500
04
0"
#205000
0.
02
b10 '
b11011100000000000100 $
b11 (
b1001111110110110 !
14
1"
#205500
04
0"
#206000
1&
13
b0 '
b111101110000000000 $
b1101 (
b100110110101100 !
14
1"
#206500
04
0"
#207000
1,
1%
1.
12
0&
03
b1 '
b11010011110111000000 $
b1100 (
b1001100000111100 !
14
1"
#207500
04
0"
#208000
0%
b0 '
b11001101001111011100 $
b1100 (
b1000011011011011 !
14
1"
#208500
04
0"
#209000
b1 '
b11001100110100111101 $
b111 (
b10010101111101 !
14
1"
#209500
04
0"
#210000
0.
02
b10 '
b1111100110011010011 $
b100 (
b1101110010010110 !
14
1"
#210500
04
0"
#211000
1&
13
b0 '
b1000111110011001101 $
b1100 (
b1110011001110101 !
14
1"
#211500
04
0"
#212000
0,
1%
1.
12
0&
03
b1 '
b11000100011111001100 $
b1 (
b1010100110100 !
14
1"
#212500
04
0"
#213000
0%
b0 '
b11100010001111100 $
b1101 (
b101110101111 !
14
1"
#213500
04
0"
#214000
b1 '
b11010001110001000111 $
b101 (
b110100111010 !
14
1"
#214500
04
0"
#215000
0.
02
b10 '
b1011101000111000100 $
b111 (
b101101100111011 !
14
1"
#215500
04
0"
#216000
1&
13
b0 '
b1110101110100011100 $
b1100 (
b1011001101101111 !
14
1"
#216500
04
0"
#217000
1,
1%
1.
12
0&
03
b1 '
b11000111010111010001 $
b1111 (
b1101101011011010 !
14
1"
#217500
04
0"
#218000
0%
b0 '
b11111100011101011101 $
b1 (
b1101100000011111 !
14
1"
#218500
04
0"
#219000
b1 '
b11111110001110101 $
b101 (
b100000001000000 !
14
1"
#219500
04
0"
#220000
0.
02
b10 '
b1010001111111000111 $
b100 (
b1110010111110110 !
14
1"
#220500
04
0"
#221000
1&
13
b0 '
b1000101000111111100 $
b100 (
b1011010100011000 !
14
1"
#221500
04
0"
#222000
0,
1%
1.
12
0&
03
b1 '
b1000100010100011111 $
b0 (
b1001011010010 !
14
1"
#222500
04
0"
#223000
0%
b0 '
b100010001010001 $
b1111 (
b1000001100110101 !
14
1"
#223500
04
0"
#224000
b1 '
b11110000010001000101 $
b1111 (
b1011011011001011 !
14
1"
#224500
04
0"
#225000
0.
02
b10 '
b11111111000001000100 $
b101 (
b1111110010100 !
14
1"
#225500
04
0"
#226000
1&
13
b0 '
b1011111111100000100 $
b1101 (
b10001110000101 !
14
1"
#226500
04
0"
#227000
1,
1%
1.
12
0&
03
b1 '
b11010101111111110000 $
b1101 (
b1000101000110 !
14
1"
#227500
04
0"
#228000
0%
b0 '
b11011101010111111111 $
b1100 (
b10110011100 !
14
1"
#228500
04
0"
#229000
b1 '
b11001101110101011111 $
b100 (
b111010010 !
14
1"
#229500
04
0"
#230000
0.
02
b10 '
b1001100110111010101 $
b1101 (
b1000000000110001 !
14
1"
#230500
04
0"
#231000
1&
13
b0 '
b11010100110011011101 $
b100 (
b101111011101010 !
14
1"
#231500
04
0"
#232000
0,
1%
1.
12
0&
03
b1 '
b1001101010011001101 $
b1 (
b1011110111001101 !
14
1"
#232500
04
0"
#233000
0%
b0 '
b10100110101001100 $
b0 (
b11011010110100 !
14
1"
#233500
04
0"
#234000
b1 '
b1010011010100 $
b1111 (
b11111000011010 !
14
1"
#234500
04
0"
#235000
0.
02
b10 '
b11110000000101001101 $
b1 (
b1101100010101111 !
14
1"
#235500
04
0"
#236000
1&
13
b0 '
b11111000000010100 $
b1 (
b111100010010111 !
14
1"
#236500
04
0"
#237000
1,
1%
1.
12
0&
03
b1 '
b10001111100000001 $
b11 (
b1110011101101000 !
14
1"
#237500
04
0"
#238000
0%
b0 '
b110001000111110000 $
b111 (
b10101110110000 !
14
1"
#238500
04
0"
#239000
b1 '
b1110011000100011111 $
b0 (
b100101101001 !
14
1"
#239500
04
0"
#240000
0.
02
b10 '
b111001100010001 $
b1100 (
b10110011010010 !
14
1"
#240500
04
0"
#241000
1&
13
b0 '
b11000000011100110001 $
b1111 (
b11101111001011 !
14
1"
#241500
04
0"
#242000
0,
1%
1.
12
0&
03
b1 '
b11111100000001110011 $
b111 (
b1011101100101100 !
14
1"
#242500
04
0"
#243000
0%
b0 '
b1111111110000000111 $
b1111 (
b110101100011010 !
14
1"
#243500
04
0"
#244000
b1 '
b11110111111111000000 $
b100 (
b1100101001100011 !
14
1"
#244500
04
0"
#245000
0.
02
b10 '
b1001111011111111100 $
b101 (
b1111101000000111 !
14
1"
#245500
04
0"
#246000
1&
13
b0 '
b1010100111101111111 $
b100 (
b11011101101001 !
14
1"
#246500
04
0"
#247000
1,
1%
1.
12
0&
03
b1 '
b1000101010011110111 $
b1111 (
b1100111001101011 !
14
1"
#247500
04
0"
#248000
0%
b0 '
b11110100010101001111 $
b0 (
b1001000011011011 !
14
1"
#248500
04
0"
#249000
b1 '
b1111010001010100 $
b1101 (
b111010000011001 !
14
1"
#249500
04
0"
#250000
0.
02
b10 '
b11010000111101000101 $
b1 (
b110011001101 !
14
1"
#250500
04
0"
#251000
1&
13
b0 '
b11101000011110100 $
b101 (
b1001101000000111 !
14
1"
#251500
04
0"
#252000
0,
1%
1.
12
0&
03
b1 '
b1010001110100001111 $
b1100 (
b1110110000000000 !
14
1"
#252500
04
0"
#253000
0%
b0 '
b11000101000111010000 $
b1111 (
b1010010010011011 !
14
1"
#253500
04
0"
#254000
b1 '
b11111100010100011101 $
b0 (
b1001111100111001 !
14
1"
#254500
04
0"
#255000
0.
02
b10 '
b1111110001010001 $
b1100 (
b101110000010101 !
14
1"
#255500
04
0"
#256000
1&
13
b0 '
b11000000111111000101 $
b101 (
b1001000100010011 !
14
1"
#256500
04
0"
#257000
1,
1%
1.
12
0&
03
b1 '
b1011100000011111100 $
b0 (
b1011011101001011 !
14
1"
#257500
04
0"
#258000
0%
b0 '
b101110000001111 $
b1101 (
b1001100010001110 !
14
1"
#258500
04
0"
#259000
b1 '
b11010000010111000000 $
b1101 (
b1100111001000000 !
14
1"
#259500
04
0"
#260000
0.
02
b10 '
b11011101000001011100 $
b101 (
b1100010011000111 !
14
1"
#260500
04
0"
#261000
1&
13
b0 '
b1011101110100000101 $
b101 (
b1001000111001101 !
14
1"
#261500
04
0"
#262000
0,
1%
1.
12
0&
03
b1 '
b1010101110111010000 $
b1101 (
b1101011100111010 !
14
1"
#262500
04
0"
#263000
0%
b0 '
b11010101010111011101 $
b101 (
b1011011000100 !
14
1"
#263500
04
0"
#264000
b1 '
b1011101010101011101 $
b1100 (
b1000100101011010 !
14
1"
#264500
04
0"
#265000
0.
02
b10 '
b11000101110101010101 $
b101 (
b101010101111 !
14
1"
#265500
04
0"
#266000
1&
13
b0 '
b1011100010111010101 $
b1001101000110 !
14
1"
#266500
04
0"
