Draft_Phuong/trit5_to_bit8_ver2/dump.vcd
$date
	Fri Oct 15 10:49:00 2021
$end
$version
	Icarus Verilog
$end
$timescale
	1ps
$end
$scope module trit5_to_bit8_tb $end
$var wire 10 ! a [9:0] $end
$var wire 1 " clk $end
$var wire 1 # rst1 $end
$var wire 1 $ rst2 $end
$var wire 8 % z [7:0] $end
$var wire 6 & x4 [5:0] $end
$var wire 6 ' x3 [5:0] $end
$var wire 4 ( x2 [3:0] $end
$var wire 3 ) x1 [2:0] $end
$var wire 2 * x0 [1:0] $end
$var wire 8 + x [7:0] $end
$var wire 8 , out [7:0] $end
$var wire 2 - count_new [1:0] $end
$var wire 10 . a_reg [9:0] $end
$var reg 2 / count [1:0] $end
$var reg 1 0 done $end
$upscope $end
$enddefinitions $end
#0
$dumpvars
x0
bx /
bx .
bx -
bx ,
b0xxxxxx +
bx *
bx )
bx (
bx '
bx &
bx %
0$
0#
1"
bz !
$end
#500
0"
1#
b0 !
#1000
b0 +
b0 -
b0 *
b0 &
b0 '
b0 (
b0 )
b11 /
b0 .
1"
#1500
0"
0#
1$
#2000
b0 %
b1 -
b0 ,
b0 /
1"
#2500
0$
0"
#3000
b10 -
b1 /
1"
#3500
0"
#4000
b11 -
b10 /
1"
#4500
0"
#5000
b0 -
b11 /
1"
#5500
0"
#6000
b1 -
b0 /
1"
#6500
1#
b1 !
0"
#7000
b0 -
b1 *
b11 /
b1 .
1"
#7500
0"
0#
1$
#8000
b1 %
b1 +
b1 -
b0 /
1"
#8500
0$
0"
#9000
b0 +
b1 %
b10 -
b1 /
b1 ,
1"
#9500
0"
#10000
b11 -
b10 /
1"
#10500
0"
#11000
b0 -
b11 /
1"
#11500
0"
#12000
b10 %
b1 +
b1 -
b0 /
1"
#12500
1#
b11 !
0"
#13000
b0 +
b10 %
b0 -
b10 *
b11 /
b10 ,
b11 .
1"
#13500
0"
0#
1$
#14000
b10 +
b10 %
b1 -
b0 ,
b0 /
1"
#14500
0$
0"
#15000
b0 +
b10 %
b10 -
b1 /
b10 ,
1"
#15500
0"
#16000
b11 -
b10 /
1"
#16500
0"
#17000
b0 -
b11 /
1"
#17500
0"
#18000
b100 %
b10 +
b1 -
b0 /
1"
#18500
1#
b100 !
0"
#19000
b0 +
b100 %
b0 -
b0 *
b11 )
b11 /
b100 ,
b100 .
1"
#19500
0"
0#
1$
#20000
b0 %
b0 +
b1 -
b0 ,
b0 /
1"
#20500
0$
0"
#21000
b11 %
b11 +
b10 -
b1 /
1"
#21500
0"
#22000
b0 +
b11 %
b11 -
b11 ,
b10 /
1"
#22500
0"
#23000
b0 -
b11 /
1"
#23500
0"
#24000
b11 %
b0 +
b1 -
b0 /
1"
#24500
1#
b101 !
0"
#25000
b0 -
b1 *
b11 /
b101 .
1"
#25500
0"
0#
1$
#26000
b1 +
b1 %
b1 -
b0 ,
b0 /
1"
#26500
0$
0"
#27000
b11 +
b100 %
b10 -
b1 /
b1 ,
1"
#27500
0"
#28000
b0 +
b100 %
b11 -
b100 ,
b10 /
1"
#28500
0"
#29000
b0 -
b11 /
1"
#29500
0"
#30000
b101 %
b1 +
b1 -
b0 /
1"
#30500
1#
b111 !
0"
#31000
b0 +
b101 %
b0 -
b10 *
b11 /
b101 ,
b111 .
1"
#31500
0"
0#
1$
#32000
b10 +
b10 %
b1 -
b0 ,
b0 /
1"
#32500
0$
0"
#33000
b11 +
b101 %
b10 -
b1 /
b10 ,
1"
#33500
0"
#34000
b0 +
b101 %
b11 -
b101 ,
b10 /
1"
#34500
0"
#35000
b0 -
b11 /
1"
#35500
0"
#36000
b111 %
b10 +
b1 -
b0 /
1"
#36500
1#
b1100 !
0"
#37000
b0 +
b111 %
b0 -
b0 *
b110 )
b11 /
b111 ,
b1100 .
1"
#37500
0"
0#
1$
#38000
b0 +
b0 %
b1 -
b0 ,
b0 /
1"
#38500
0$
0"
#39000
b110 %
b110 +
b10 -
b1 /
1"
#39500
0"
#40000
b110 %
b0 +
b11 -
b110 ,
b10 /
1"
#40500
0"
#41000
b0 -
b11 /
1"
#41500
0"
#42000
b110 %
b0 +
b1 -
b0 /
1"
#42500
1#
b1101 !
0"
#43000
b0 -
b1 *
b11 /
b1101 .
1"
#43500
0"
0#
1$
#44000
b1 %
b1 +
b1 -
b0 ,
b0 /
1"
#44500
0$
0"
#45000
b110 +
b111 %
b10 -
b1 /
b1 ,
1"
#45500
0"
#46000
b111 %
b0 +
b11 -
b111 ,
b10 /
1"
#46500
0"
#47000
b0 -
b11 /
1"
#47500
0"
#48000
b1000 %
b1 +
b1 -
b0 /
1"
#48500
1#
b1111 !
0"
#49000
b0 +
b1000 %
b0 -
b10 *
b11 /
b1000 ,
b1111 .
1"
#49500
0"
0#
1$
#50000
b10 %
b10 +
b1 -
b0 ,
b0 /
1"
#50500
0$
0"
#51000
b110 +
b1000 %
b10 -
b1 /
b10 ,
1"
#51500
0"
#52000
b1000 %
b0 +
b11 -
b1000 ,
b10 /
1"
#52500
0"
#53000
b0 -
b11 /
1"
#53500
0"
#54000
b1010 %
b10 +
b1 -
b0 /
1"
#54500
1#
b10000 !
0"
#55000
b0 +
b1010 %
b101 (
b0 -
b0 *
b0 )
b11 /
b1010 ,
b10000 .
1"
#55500
0"
0#
1$
#56000
b0 %
b1 -
b0 ,
b0 /
1"
#56500
0$
0"
#57000
b10 -
b1 /
1"
#57500
0"
#58000
b1001 %
b1001 +
b11 -
b10 /
1"
#58500
0"
#59000
b0 +
b1001 %
b0 -
b11 /
b1001 ,
1"
#59500
0"
#60000
b1 -
b0 /
1"
#60500
1#
b10001 !
0"
#61000
b1001 %
b0 +
b0 -
b1 *
b11 /
b10001 .
1"
#61500
0"
0#
1$
#62000
b1 +
b1 %
b1 -
b0 ,
b0 /
1"
#62500
0$
0"
#63000
b0 +
b1 %
b10 -
b1 /
b1 ,
1"
#63500
0"
#64000
b1010 %
b1001 +
b11 -
b10 /
1"
#64500
0"
#65000
b0 +
b1010 %
b0 -
b11 /
b1010 ,
1"
#65500
0"
#66000
b1011 %
b1 +
b1 -
b0 /
1"
#66500
1#
b10011 !
0"
#67000
b0 +
b1011 %
b0 -
b10 *
b11 /
b1011 ,
b10011 .
1"
#67500
0"
0#
1$
#68000
b10 +
b10 %
b1 -
b0 ,
b0 /
1"
#68500
0$
0"
#69000
b0 +
b10 %
b10 -
b1 /
b10 ,
1"
#69500
0"
#70000
b1011 %
b1001 +
b11 -
b10 /
1"
#70500
0"
#71000
b0 +
b1011 %
b0 -
b11 /
b1011 ,
1"
#71500
0"
#72000
b1101 %
b10 +
b1 -
b0 /
1"
#72500
1#
b10100 !
0"
#73000
b1101 %
b0 +
b0 -
b0 *
b11 )
b11 /
b1101 ,
b10100 .
1"
#73500
0"
0#
1$
#74000
b0 +
b0 %
b1 -
b0 ,
b0 /
1"
#74500
0$
0"
#75000
b11 %
b11 +
b10 -
b1 /
1"
#75500
0"
#76000
b1001 +
b1100 %
b11 -
b11 ,
b10 /
1"
#76500
0"
#77000
b0 +
b1100 %
b0 -
b11 /
b1100 ,
1"
#77500
0"
#78000
b1100 %
b0 +
b1 -
b0 /
1"
#78500
1#
b10101 !
0"
#79000
b1100 %
b0 +
b0 -
b1 *
b11 /
b10101 .
1"
#79500
0"
0#
1$
#80000
b1 %
b1 +
b1 -
b0 ,
b0 /
1"
#80500
0$
0"
#81000
b11 +
b100 %
b10 -
b1 /
b1 ,
1"
#81500
0"
#82000
b1001 +
b1101 %
b11 -
b100 ,
b10 /
1"
#82500
0"
#83000
b0 +
b1101 %
b0 -
b11 /
b1101 ,
1"
#83500
0"
#84000
b1110 %
b1 +
b1 -
b0 /
1"
#84500
1#
b10111 !
0"
#85000
b0 +
b1110 %
b0 -
b10 *
b11 /
b1110 ,
b10111 .
1"
#85500
0"
0#
1$
#86000
b10 %
b10 +
b1 -
b0 ,
b0 /
1"
#86500
0$
0"
#87000
b11 +
b101 %
b10 -
b1 /
b10 ,
1"
#87500
0"
#88000
b1001 +
b1110 %
b11 -
b101 ,
b10 /
1"
#88500
0"
#89000
b0 +
b1110 %
b0 -
b11 /
b1110 ,
1"
#89500
0"
#90000
b10000 %
b10 +
b1 -
b0 /
1"
#90500
1#
b11100 !
0"
#91000
b10000 %
b0 +
b0 -
b0 *
b110 )
b11 /
b10000 ,
b11100 .
1"
#91500
0"
0#
1$
#92000
b0 %
b0 +
b1 -
b0 ,
b0 /
1"
#92500
0$
0"
#93000
b110 %
b110 +
b10 -
b1 /
1"
#93500
0"
#94000
b1111 %
b1001 +
b11 -
b110 ,
b10 /
1"
#94500
0"
#95000
b0 +
b1111 %
b0 -
b11 /
b1111 ,
1"
#95500
0"
#96000
b1111 %
b0 +
b1 -
b0 /
1"
#96500
1#
b11101 !
0"
#97000
b1111 %
b0 +
b0 -
b1 *
b11 /
b11101 .
1"
#97500
0"
0#
1$
#98000
b1 +
b1 %
b1 -
b0 ,
b0 /
1"
#98500
0$
0"
#99000
b110 +
b111 %
b10 -
b1 /
b1 ,
1"
#99500
0"
#100000
b10000 %
b1001 +
b11 -
b111 ,
b10 /
1"
#100500
0"
#101000
b0 +
b10000 %
b0 -
b11 /
b10000 ,
1"
#101500
0"
#102000
b10001 %
b1 +
b1 -
b0 /
1"
#102500
1#
b11111 !
0"
#103000
b0 +
b10001 %
b0 -
b10 *
b11 /
b10001 ,
b11111 .
1"
#103500
0"
0#
1$
#104000
b10 +
b10 %
b1 -
b0 ,
b0 /
1"
#104500
0$
0"
#105000
b110 +
b1000 %
b10 -
b1 /
b10 ,
1"
#105500
0"
#106000
b10001 %
b1001 +
b11 -
b1000 ,
b10 /
1"
#106500
0"
#107000
b0 +
b10001 %
b0 -
b11 /
b10001 ,
1"
#107500
0"
#108000
b10011 %
b10 +
b1 -
b0 /
1"
#108500
1#
b110000 !
0"
#109000
b10011 %
b0 +
b0 -
b0 *
b1010 (
b0 )
b11 /
b10011 ,
b110000 .
1"
#109500
0"
0#
1$
#110000
b0 %
b1 -
b0 ,
b0 /
1"
#110500
0$
0"
#111000
b10 -
b1 /
1"
#111500
0"
#112000
b10010 %
b10010 +
b11 -
b10 /
1"
#112500
0"
#113000
b0 +
b10010 %
b0 -
b11 /
b10010 ,
1"
#113500
0"
#114000
b1 -
b0 /
1"
#114500
1#
b110001 !
0"
#115000
b10010 %
b0 +
b0 -
b1 *
b11 /
b110001 .
1"
#115500
0"
0#
1$
#116000
b1 +
b1 %
b1 -
b0 ,
b0 /
1"
#116500
0$
0"
#117000
b0 +
b1 %
b10 -
b1 /
b1 ,
1"
#117500
0"
#118000
b10011 %
b10010 +
b11 -
b10 /
1"
#118500
0"
#119000
b0 +
b10011 %
b0 -
b11 /
b10011 ,
1"
#119500
0"
#120000
b10100 %
b1 +
b1 -
b0 /
1"
#120500
1#
b110011 !
0"
#121000
b0 +
b10100 %
b0 -
b10 *
b11 /
b10100 ,
b110011 .
1"
#121500
0"
0#
1$
#122000
b10 +
b10 %
b1 -
b0 ,
b0 /
1"
#122500
0$
0"
#123000
b0 +
b10 %
b10 -
b1 /
b10 ,
1"
#123500
0"
#124000
b10100 %
b10010 +
b11 -
b10 /
1"
#124500
0"
#125000
b0 +
b10100 %
b0 -
b11 /
b10100 ,
1"
#125500
0"
#126000
b10110 %
b10 +
b1 -
b0 /
1"
#126500
1#
b110100 !
0"
#127000
b10110 %
b0 +
b0 -
b0 *
b11 )
b11 /
b10110 ,
b110100 .
1"
#127500
0"
0#
1$
#128000
b0 %
b0 +
b1 -
b0 ,
b0 /
1"
#128500
0$
0"
#129000
b11 %
b11 +
b10 -
b1 /
1"
#129500
0"
#130000
b10010 +
b10101 %
b11 -
b11 ,
b10 /
1"
#130500
0"
#131000
b0 +
b10101 %
b0 -
b11 /
b10101 ,
1"
#131500
0"
#132000
b10101 %
b0 +
b1 -
b0 /
1"
#132500
1#
b110101 !
0"
#133000
b10101 %
b0 +
b0 -
b1 *
b11 /
b110101 .
1"
#133500
0"
0#
1$
#134000
b1 +
b1 %
b1 -
b0 ,
b0 /
1"
#134500
0$
0"
#135000
b11 +
b100 %
b10 -
b1 /
b1 ,
1"
#135500
0"
#136000
b10010 +
b10110 %
b11 -
b100 ,
b10 /
1"
#136500
0"
#137000
b0 +
b10110 %
b0 -
b11 /
b10110 ,
1"
#137500
0"
#138000
b10111 %
b1 +
b1 -
b0 /
1"
#138500
1#
b110111 !
0"
#139000
b0 +
b10111 %
b0 -
b10 *
b11 /
b10111 ,
b110111 .
1"
#139500
0"
0#
1$
#140000
b10 +
b10 %
b1 -
b0 ,
b0 /
1"
#140500
0$
0"
#141000
b11 +
b101 %
b10 -
b1 /
b10 ,
1"
#141500
0"
#142000
b10010 +
b10111 %
b11 -
b101 ,
b10 /
1"
#142500
0"
#143000
b0 +
b10111 %
b0 -
b11 /
b10111 ,
1"
#143500
0"
#144000
b11001 %
b10 +
b1 -
b0 /
1"
#144500
1#
b111100 !
0"
#145000
b11001 %
b0 +
b0 -
b0 *
b110 )
b11 /
b11001 ,
b111100 .
1"
#145500
0"
0#
1$
#146000
b0 +
b0 %
b1 -
b0 ,
b0 /
1"
#146500
0$
0"
#147000
b110 %
b110 +
b10 -
b1 /
1"
#147500
0"
#148000
b11000 %
b10010 +
b11 -
b110 ,
b10 /
1"
#148500
0"
#149000
b0 +
b11000 %
b0 -
b11 /
b11000 ,
1"
#149500
0"
#150000
b11000 %
b0 +
b1 -
b0 /
1"
#150500
1#
b111101 !
0"
#151000
b11000 %
b0 +
b0 -
b1 *
b11 /
b111101 .
1"
#151500
0"
0#
1$
#152000
b1 %
b1 +
b1 -
b0 ,
b0 /
1"
#152500
0$
0"
#153000
b110 +
b111 %
b10 -
b1 /
b1 ,
1"
#153500
0"
#154000
b11001 %
b10010 +
b11 -
b111 ,
b10 /
1"
#154500
0"
#155000
b0 +
b11001 %
b0 -
b11 /
b11001 ,
1"
#155500
0"
#156000
b11010 %
b1 +
b1 -
b0 /
1"
#156500
1#
b111111 !
0"
#157000
b0 +
b11010 %
b0 -
b10 *
b11 /
b11010 ,
b111111 .
1"
#157500
0"
0#
1$
#158000
b10 %
b10 +
b1 -
b0 ,
b0 /
1"
#158500
0$
0"
#159000
b110 +
b1000 %
b10 -
b1 /
b10 ,
1"
#159500
0"
#160000
b11010 %
b10010 +
b11 -
b1000 ,
b10 /
1"
#160500
0"
#161000
b0 +
b11010 %
b0 -
b11 /
b11010 ,
1"
#161500
0"
#162000
b11100 %
b10 +
b1 -
b0 /
1"
#162500
1#
b1000000 !
0"
#163000
b110111 %
b11011 +
b0 -
b0 *
b11011 '
b0 (
b0 )
b11 /
b11100 ,
b1000000 .
1"
#163500
0"
0#
1$
#164000
b0 %
b0 +
b1 -
b0 ,
b0 /
1"
#164500
0$
0"
#165000
b10 -
b1 /
1"
#165500
0"
#166000
b0 %
b0 +
b11 -
b10 /
1"
#166500
0"
#167000
b11011 %
b11011 +
b0 -
b11 /
1"
#167500
0"
#168000
b11011 %
b0 +
b1 -
b11011 ,
b0 /
1"
#168500
1#
b1000001 !
0"
#169000
b110110 %
b11011 +
b0 -
b1 *
b11 /
b1000001 .
1"
#169500
0"
0#
1$
#170000
b1 %
b1 +
b1 -
b0 ,
b0 /
1"
#170500
0$
0"
#171000
b0 +
b1 %
b10 -
b1 /
b1 ,
1"
#171500
0"
#172000
b1 %
b0 +
b11 -
b10 /
1"
#172500
0"
#173000
b11100 %
b11011 +
b0 -
b11 /
1"
#173500
0"
#174000
b11101 %
b1 +
b1 -
b11100 ,
b0 /
1"
#174500
1#
b1000011 !
0"
#175000
b11011 +
b111000 %
b0 -
b10 *
b11 /
b11101 ,
b1000011 .
1"
#175500
0"
0#
1$
#176000
b10 %
b10 +
b1 -
b0 ,
b0 /
1"
#176500
0$
0"
#177000
b0 +
b10 %
b10 -
b1 /
b10 ,
1"
#177500
0"
#178000
b10 %
b0 +
b11 -
b10 /
1"
#178500
0"
#179000
b11101 %
b11011 +
b0 -
b11 /
1"
#179500
0"
#180000
b11111 %
b10 +
b1 -
b11101 ,
b0 /
1"
#180500
1#
b1000100 !
0"
#181000
b11011 +
b111010 %
b0 -
b0 *
b11 )
b11 /
b11111 ,
b1000100 .
1"
#181500
0"
0#
1$
#182000
b0 %
b0 +
b1 -
b0 ,
b0 /
1"
#182500
0$
0"
#183000
b11 %
b11 +
b10 -
b1 /
1"
#183500
0"
#184000
b11 %
b0 +
b11 -
b11 ,
b10 /
1"
#184500
0"
#185000
b11110 %
b11011 +
b0 -
b11 /
1"
#185500
0"
#186000
b11110 %
b0 +
b1 -
b11110 ,
b0 /
1"
#186500
1#
b1000101 !
0"
#187000
b111001 %
b11011 +
b0 -
b1 *
b11 /
b1000101 .
1"
#187500
0"
0#
1$
#188000
b1 %
b1 +
b1 -
b0 ,
b0 /
1"
#188500
0$
0"
#189000
b11 +
b100 %
b10 -
b1 /
b1 ,
1"
#189500
0"
#190000
b100 %
b0 +
b11 -
b100 ,
b10 /
1"
#190500
0"
#191000
b11111 %
b11011 +
b0 -
b11 /
1"
#191500
0"
#192000
b100000 %
b1 +
b1 -
b11111 ,
b0 /
1"
#192500
1#
b1000111 !
0"
#193000
b11011 +
b111011 %
b0 -
b10 *
b11 /
b100000 ,
b1000111 .
1"
#193500
0"
0#
1$
#194000
b10 %
b10 +
b1 -
b0 ,
b0 /
1"
#194500
0$
0"
#195000
b11 +
b101 %
b10 -
b1 /
b10 ,
1"
#195500
0"
#196000
b101 %
b0 +
b11 -
b101 ,
b10 /
1"
#196500
0"
#197000
b100000 %
b11011 +
b0 -
b11 /
1"
#197500
0"
#198000
b100010 %
b10 +
b1 -
b100000 ,
b0 /
1"
#198500
1#
b1001100 !
0"
#199000
b11011 +
b111101 %
b0 -
b0 *
b110 )
b11 /
b100010 ,
b1001100 .
1"
#199500
0"
0#
1$
#200000
b0 %
b0 +
b1 -
b0 ,
b0 /
1"
#200500
0$
0"
#201000
b110 %
b110 +
b10 -
b1 /
1"
#201500
0"
#202000
b110 %
b0 +
b11 -
b110 ,
b10 /
1"
#202500
0"
#203000
b100001 %
b11011 +
b0 -
b11 /
1"
#203500
0"
#204000
b100001 %
b0 +
b1 -
b100001 ,
b0 /
1"
#204500
1#
b1001101 !
0"
#205000
b111100 %
b11011 +
b0 -
b1 *
b11 /
b1001101 .
1"
#205500
0"
0#
1$
#206000
b1 %
b1 +
b1 -
b0 ,
b0 /
1"
#206500
0$
0"
#207000
b110 +
b111 %
b10 -
b1 /
b1 ,
1"
#207500
0"
#208000
b111 %
b0 +
b11 -
b111 ,
b10 /
1"
#208500
0"
#209000
b100010 %
b11011 +
b0 -
b11 /
1"
#209500
0"
#210000
b100011 %
b1 +
b1 -
b100010 ,
b0 /
1"
#210500
1#
b1001111 !
0"
#211000
b11011 +
b111110 %
b0 -
b10 *
b11 /
b100011 ,
b1001111 .
1"
#211500
0"
0#
1$
#212000
b10 %
b10 +
b1 -
b0 ,
b0 /
1"
#212500
0$
0"
#213000
b110 +
b1000 %
b10 -
b1 /
b10 ,
1"
#213500
0"
#214000
b1000 %
b0 +
b11 -
b1000 ,
b10 /
1"
#214500
0"
#215000
b100011 %
b11011 +
b0 -
b11 /
1"
#215500
0"
#216000
b100101 %
b10 +
b1 -
b100011 ,
b0 /
1"
#216500
1#
b1010000 !
0"
#217000
b11011 +
b1000000 %
b101 (
b0 -
b0 *
b0 )
b11 /
b100101 ,
b1010000 .
1"
#217500
0"
0#
1$
#218000
b0 %
b0 +
b1 -
b0 ,
b0 /
1"
#218500
0$
0"
#219000
b10 -
b1 /
1"
#219500
0"
#220000
b1001 %
b1001 +
b11 -
b10 /
1"
#220500
0"
#221000
b11011 +
b100100 %
b0 -
b11 /
b1001 ,
1"
#221500
0"
#222000
b100100 %
b0 +
b1 -
b100100 ,
b0 /
1"
#222500
1#
b1010001 !
0"
#223000
b111111 %
b11011 +
b0 -
b1 *
b11 /
b1010001 .
1"
#223500
0"
0#
1$
#224000
b1 %
b1 +
b1 -
b0 ,
b0 /
1"
#224500
0$
0"
#225000
b0 +
b1 %
b10 -
b1 /
b1 ,
1"
#225500
0"
#226000
b1010 %
b1001 +
b11 -
b10 /
1"
#226500
0"
#227000
b11011 +
b100101 %
b0 -
b11 /
b1010 ,
1"
#227500
0"
#228000
b100110 %
b1 +
b1 -
b100101 ,
b0 /
1"
#228500
1#
b1010011 !
0"
#229000
b11011 +
b1000001 %
b0 -
b10 *
b11 /
b100110 ,
b1010011 .
1"
#229500
0"
0#
1$
#230000
b10 %
b10 +
b1 -
b0 ,
b0 /
1"
#230500
0$
0"
#231000
b0 +
b10 %
b10 -
b1 /
b10 ,
1"
#231500
0"
#232000
b1011 %
b1001 +
b11 -
b10 /
1"
#232500
0"
#233000
b11011 +
b100110 %
b0 -
b11 /
b1011 ,
1"
#233500
0"
#234000
b101000 %
b10 +
b1 -
b100110 ,
b0 /
1"
#234500
1#
b1010100 !
0"
#235000
b1000011 %
b11011 +
b0 -
b0 *
b11 )
b11 /
b101000 ,
b1010100 .
1"
#235500
0"
0#
1$
#236000
b0 %
b0 +
b1 -
b0 ,
b0 /
1"
#236500
0$
0"
#237000
b11 %
b11 +
b10 -
b1 /
1"
#237500
0"
#238000
b1100 %
b1001 +
b11 -
b11 ,
b10 /
1"
#238500
0"
#239000
b11011 +
b100111 %
b0 -
b11 /
b1100 ,
1"
#239500
0"
#240000
b100111 %
b0 +
b1 -
b100111 ,
b0 /
1"
#240500
1#
b1010101 !
0"
#241000
b1000010 %
b11011 +
b0 -
b1 *
b11 /
b1010101 .
1"
#241500
0"
0#
1$
#242000
b1 %
b1 +
b1 -
b0 ,
b0 /
1"
#242500
0$
0"
#243000
b11 +
b100 %
b10 -
b1 /
b1 ,
1"
#243500
0"
#244000
b1101 %
b1001 +
b11 -
b100 ,
b10 /
1"
#244500
0"
#245000
b11011 +
b101000 %
b0 -
b11 /
b1101 ,
1"
#245500
0"
#246000
b101001 %
b1 +
b1 -
b101000 ,
b0 /
1"
#246500
1#
b1010111 !
0"
#247000
b11011 +
b1000100 %
b0 -
b10 *
b11 /
b101001 ,
b1010111 .
1"
#247500
0"
0#
1$
#248000
b10 %
b10 +
b1 -
b0 ,
b0 /
1"
#248500
0$
0"
#249000
b11 +
b101 %
b10 -
b1 /
b10 ,
1"
#249500
0"
#250000
b1110 %
b1001 +
b11 -
b101 ,
b10 /
1"
#250500
0"
#251000
b11011 +
b101001 %
b0 -
b11 /
b1110 ,
1"
#251500
0"
#252000
b101011 %
b10 +
b1 -
b101001 ,
b0 /
1"
#252500
1#
b1011100 !
0"
#253000
b1000110 %
b11011 +
b0 -
b0 *
b110 )
b11 /
b101011 ,
b1011100 .
1"
#253500
0"
0#
1$
#254000
b0 %
b0 +
b1 -
b0 ,
b0 /
1"
#254500
0$
0"
#255000
b110 %
b110 +
b10 -
b1 /
1"
#255500
0"
#256000
b1111 %
b1001 +
b11 -
b110 ,
b10 /
1"
#256500
0"
#257000
b11011 +
b101010 %
b0 -
b11 /
b1111 ,
1"
#257500
0"
#258000
b101010 %
b0 +
b1 -
b101010 ,
b0 /
1"
#258500
1#
b1011101 !
0"
#259000
b1000101 %
b11011 +
b0 -
b1 *
b11 /
b1011101 .
1"
#259500
0"
0#
1$
#260000
b1 %
b1 +
b1 -
b0 ,
b0 /
1"
#260500
0$
0"
#261000
b110 +
b111 %
b10 -
b1 /
b1 ,
1"
#261500
0"
#262000
b10000 %
b1001 +
b11 -
b111 ,
b10 /
1"
#262500
0"
#263000
b11011 +
b101011 %
b0 -
b11 /
b10000 ,
1"
#263500
0"
#264000
b101100 %
b1 +
b1 -
b101011 ,
b0 /
1"
#264500
1#
b1011111 !
0"
#265000
b11011 +
b1000111 %
b0 -
b10 *
b11 /
b101100 ,
b1011111 .
1"
#265500
0"
0#
1$
#266000
b10 %
b10 +
b1 -
b0 ,
b0 /
1"
#266500
0$
0"
#267000
b110 +
b1000 %
b10 -
b1 /
b10 ,
1"
#267500
0"
#268000
b10001 %
b1001 +
b11 -
b1000 ,
b10 /
1"
#268500
0"
#269000
b11011 +
b101100 %
b0 -
b11 /
b10001 ,
1"
#269500
0"
#270000
b101110 %
b10 +
b1 -
b101100 ,
b0 /
1"
#270500
1#
b1110000 !
0"
#271000
b1001001 %
b11011 +
b0 -
b0 *
b1010 (
b0 )
b11 /
b101110 ,
b1110000 .
1"
#271500
0"
0#
1$
#272000
b0 %
b0 +
b1 -
b0 ,
b0 /
1"
#272500
0$
0"
#273000
b10 -
b1 /
1"
#273500
0"
#274000
b10010 %
b10010 +
b11 -
b10 /
1"
#274500
0"
#275000
b11011 +
b101101 %
b0 -
b11 /
b10010 ,
1"
#275500
0"
#276000
b101101 %
b0 +
b1 -
b101101 ,
b0 /
1"
#276500
1#
b1110001 !
0"
#277000
b1001000 %
b11011 +
b0 -
b1 *
b11 /
b1110001 .
1"
#277500
0"
0#
1$
#278000
b1 %
b1 +
b1 -
b0 ,
b0 /
1"
#278500
0$
0"
#279000
b0 +
b1 %
b10 -
b1 /
b1 ,
1"
#279500
0"
#280000
b10011 %
b10010 +
b11 -
b10 /
1"
#280500
0"
#281000
b11011 +
b101110 %
b0 -
b11 /
b10011 ,
1"
#281500
0"
#282000
b101111 %
b1 +
b1 -
b101110 ,
b0 /
1"
#282500
1#
b1110011 !
0"
#283000
b11011 +
b1001010 %
b0 -
b10 *
b11 /
b101111 ,
b1110011 .
1"
#283500
0"
0#
1$
#284000
b10 %
b10 +
b1 -
b0 ,
b0 /
1"
#284500
0$
0"
#285000
b0 +
b10 %
b10 -
b1 /
b10 ,
1"
#285500
0"
#286000
b10100 %
b10010 +
b11 -
b10 /
1"
#286500
0"
#287000
b11011 +
b101111 %
b0 -
b11 /
b10100 ,
1"
#287500
0"
#288000
b110001 %
b10 +
b1 -
b101111 ,
b0 /
1"
#288500
1#
b1110100 !
0"
#289000
b1001100 %
b11011 +
b0 -
b0 *
b11 )
b11 /
b110001 ,
b1110100 .
1"
#289500
0"
0#
1$
#290000
b0 %
b0 +
b1 -
b0 ,
b0 /
1"
#290500
0$
0"
#291000
b11 %
b11 +
b10 -
b1 /
1"
#291500
0"
#292000
b10101 %
b10010 +
b11 -
b11 ,
b10 /
1"
#292500
0"
#293000
b11011 +
b110000 %
b0 -
b11 /
b10101 ,
1"
#293500
0"
#294000
b110000 %
b0 +
b1 -
b110000 ,
b0 /
1"
#294500
1#
b1110101 !
0"
#295000
b1001011 %
b11011 +
b0 -
b1 *
b11 /
b1110101 .
1"
#295500
0"
0#
1$
#296000
b1 %
b1 +
b1 -
b0 ,
b0 /
1"
#296500
0$
0"
#297000
b11 +
b100 %
b10 -
b1 /
b1 ,
1"
#297500
0"
#298000
b10110 %
b10010 +
b11 -
b100 ,
b10 /
1"
#298500
0"
#299000
b11011 +
b110001 %
b0 -
b11 /
b10110 ,
1"
#299500
0"
#300000
b110010 %
b1 +
b1 -
b110001 ,
b0 /
1"
#300500
1#
b1110111 !
0"
#301000
b11011 +
b1001101 %
b0 -
b10 *
b11 /
b110010 ,
b1110111 .
1"
#301500
0"
0#
1$
#302000
b10 %
b10 +
b1 -
b0 ,
b0 /
1"
#302500
0$
0"
#303000
b11 +
b101 %
b10 -
b1 /
b10 ,
1"
#303500
0"
#304000
b10111 %
b10010 +
b11 -
b101 ,
b10 /
1"
#304500
0"
#305000
b11011 +
b110010 %
b0 -
b11 /
b10111 ,
1"
#305500
0"
#306000
b110100 %
b10 +
b1 -
b110010 ,
b0 /
1"
#306500
1#
b1111100 !
0"
#307000
b1001111 %
b11011 +
b0 -
b0 *
b110 )
b11 /
b110100 ,
b1111100 .
1"
#307500
0"
0#
1$
#308000
b0 %
b0 +
b1 -
b0 ,
b0 /
1"
#308500
0$
0"
#309000
b110 %
b110 +
b10 -
b1 /
1"
#309500
0"
#310000
b11000 %
b10010 +
b11 -
b110 ,
b10 /
1"
#310500
0"
#311000
b11011 +
b110011 %
b0 -
b11 /
b11000 ,
1"
#311500
0"
#312000
b110011 %
b0 +
b1 -
b110011 ,
b0 /
1"
#312500
1#
b1111101 !
0"
#313000
b1001110 %
b11011 +
b0 -
b1 *
b11 /
b1111101 .
1"
#313500
0"
0#
1$
#314000
b1 %
b1 +
b1 -
b0 ,
b0 /
1"
#314500
0$
0"
#315000
b110 +
b111 %
b10 -
b1 /
b1 ,
1"
#315500
0"
#316000
b11001 %
b10010 +
b11 -
b111 ,
b10 /
1"
#316500
0"
#317000
b11011 +
b110100 %
b0 -
b11 /
b11001 ,
1"
#317500
0"
#318000
b110101 %
b1 +
b1 -
b110100 ,
b0 /
1"
#318500
1#
b1111111 !
0"
#319000
b11011 +
b1010000 %
b0 -
b10 *
b11 /
b110101 ,
b1111111 .
1"
#319500
0"
0#
1$
#320000
b10 %
b10 +
b1 -
b0 ,
b0 /
1"
#320500
0$
0"
#321000
b110 +
b1000 %
b10 -
b1 /
b10 ,
1"
#321500
0"
#322000
b11010 %
b10010 +
b11 -
b1000 ,
b10 /
1"
#322500
0"
#323000
b11011 +
b110101 %
b0 -
b11 /
b11010 ,
1"
#323500
0"
#324000
b110111 %
b10 +
b1 -
b110101 ,
b0 /
1"
#324500
1#
b11000000 !
0"
#325000
b1101101 %
b110110 +
b0 -
b0 *
b110110 '
b0 (
b0 )
b11 /
b110111 ,
b11000000 .
1"
#325500
0"
0#
1$
#326000
b0 %
b0 +
b1 -
b0 ,
b0 /
1"
#326500
0$
0"
#327000
b10 -
b1 /
1"
#327500
0"
#328000
b0 %
b0 +
b11 -
b10 /
1"
#328500
0"
#329000
b110110 %
b110110 +
b0 -
b11 /
1"
#329500
0"
#330000
b110110 %
b0 +
b1 -
b110110 ,
b0 /
1"
#330500
1#
b11000001 !
0"
