Draft_Phuong/Encaps/HashUnit/dump.vcd
$date
	Mon Oct 18 23:20:20 2021
$end
$version
	Icarus Verilog
$end
$timescale
	1ps
$end
$scope module testbench $end
$var wire 16 ! bits [16:1] $end
$var wire 1 " clk $end
$var wire 1 # ovr_rst $end
$var wire 1600 $ z [1600:1] $end
$var wire 1600 % s_next [1600:1] $end
$var wire 20 & rm [19:0] $end
$var wire 1088 ' prm [1088:1] $end
$var wire 1088 ( p_reg [1088:1] $end
$var wire 1 ) p3_rst2 $end
$var wire 1 * p3_rst1 $end
$var wire 2 + p3_count [1:0] $end
$var wire 1088 , p [1088:1] $end
$var wire 4 - mod3 [3:0] $end
$var wire 1 . hash_sp $end
$var wire 1 / hash_rst2 $end
$var wire 1 0 hash_rst1 $end
$var wire 1 1 hash_keccak $end
$var wire 1 2 hash_fin $end
$var wire 1 3 hash_clk $end
$var wire 1 4 hash_ans $end
$var wire 1 5 halt_n $end
$var wire 1 6 fifo2_stop $end
$var wire 1 7 fifo2_en $end
$var wire 1 8 fifo1_en $end
$var wire 16 9 bytes [15:0] $end
$var reg 256 : k [256:1] $end
$upscope $end
$enddefinitions $end
#0
$dumpvars
bx :
bx 9
18
x7
06
15
x4
x3
02
x1
00
x/
x.
bx -
b0 ,
b0 +
0*
0)
bx (
b0 '
b0 &
bx %
bx $
1#
1"
bz !
$end
#100
03
07
#500
08
0"
#1000
b0 :
18
1"
#1100
0#
#1500
08
0"
#2000
b11 -
b11011011010100 !
1*
b1 +
bx0000000000000000 &
18
1"
#2500
08
0"
#3000
1)
0*
b10 +
b11xxxx000000000000 &
b1111 -
18
b11101111011101 !
1"
#3100
04
bx0000000000000000000000000000000000000000000000000000000000000000000000000000000000000000000000000000000000000000000000000000000000000000000000000000000000000000000000000000000000000000000000000000000000000000000000000000000000000000000000000000000000000000000000000000000000000000000000000000000000000000000000000000000000000000000000000000000000000000000000000000000000000000000000000000000000000000000000000000000000000000000000000000000000000000000000000000000000000000000000000000000000000000000000000000000000000000000000000000000000000000000000000000000000000000000000000000000000000000000000000000000000000000000000000000000000000000000000000000000000000000000000000000000000000000000000000000000000000000000000000000000000000000000000000000000000000000000000000000000000000000000000000000000000000000000000000000000000000000000000000000000000000000000000000000000000000000000000000000000000000000000000000000000000000000000000000000000000000000000000000000000000000000000000000000000000000000000000000000000000000000000000000000000000000000000000000000000000000000 ,
1/
01
bx0000000000000000000000000000000000000000000000000000000000000000000000000000000000000000000000000000000000000000000000000000000000000000000000000000000000000000000000000000000000000000000000000000000000000000000000000000000000000000000000000000000000000000000000000000000000000000000000000000000000000000000000000000000000000000000000000000000000000000000000000000000000000000000000000000000000000000000000000000000000000000000000000000000000000000000000000000000000000000000000000000000000000000000000000000000000000000000000000000000000000000000000000000000000000000000000000000000000000000000000000000000000000000000000000000000000000000000000000000000000000000000000000000000000000000000000000000000000000000000000000000000000000000000000000000000000000000000000000000000000000000000000000000000000000000000000000000000000000000000000000000000000000000000000000000000000000000000000000000000000000000000000000000000000000000000000000000000000000000000000000000000000000000000000000000000000000000000000000000000000000000000000000000000000000000000000000000000000000000 '
13
17
#3300
bx0000000000000000000000000000000000000000000000000000000000000000000000000000000000000000000000000000000000000000000000000000000000000000000000000000000000000000000000000000000000000000000000000000000000000000000000000000000000000000000000000000000000000000000000000000000000000000000000000000000000000000000000000000000000000000000000000000000000000000000000000000000000000000000000000000000000000000000000000000000000000000000000000000000000000000000000000000000000000000000000000000000000000000000000000000000000000000000000000000000000000000000000000000000000000000000000000000000000000000000000000000000000000000000000000000000000000000000000000000000000000000000000000000000000000000000000000000000000000000000000000000000000000000000000000000000000000000000000000000000000000000000000000000000000000000000000000000000000000000000000000000000000000000000000000000000000000000000000000000000000000000000000000000000000000000000000000000000000000000000000000000000000000000000000000000000000000000000000000000000000000000000000000000000000000000000000000000000000000000 (
1.
#3500
08
0"
#4000
0)
b11 +
bx00xx00000000 9
b11110011xxxx00000000 &
b100 -
18
b1001101001100110 !
1"
#4500
08
0"
#5000
b10 +
bx00000000 9
b10011110011xxxx0000 &
b1101 -
18
b10011001100001 !
1"
#5100
03
07
#5500
08
0"
#6000
b0 +
b1101010011110011xxxx &
b1111 -
18
b1000001111101001 !
1"
#6500
08
0"
#7000
1*
b1 +
b11111101010011110011 &
b1111 -
18
b101110001000001 !
1"
#7500
08
0"
#8000
1)
0*
b10 +
b11111111110101001111 &
b111 -
18
b1011001011101001 !
1"
#8100
bx00000000xxxxxxxxxxxxxxxx000000000000000000000000000000000000000000000000000000000000000000000000000000000000000000000000000000000000000000000000000000000000000000000000000000000000000000000000000000000000000000000000000000000000000000000000000000000000000000000000000000000000000000000000000000000000000000000000000000000000000000000000000000000000000000000000000000000000000000000000000000000000000000000000000000000000000000000000000000000000000000000000000000000000000000000000000000000000000000000000000000000000000000000000000000000000000000000000000000000000000000000000000000000000000000000000000000000000000000000000000000000000000000000000000000000000000000000000000000000000000000000000000000000000000000000000000000000000000000000000000000000000000000000000000000000000000000000000000000000000000000000000000000000000000000000000000000000000000000000000000000000000000000000000000000000000000000000000000000000000000000000000000000000000000000000000000000000000000000000000000000000000000000000000000000000000000000000000000000000000000000000000000000000000000000000000 ,
11
bx00000000xxxxxxxxxxxxxxxx000000000000000000000000000000000000000000000000000000000000000000000000000000000000000000000000000000000000000000000000000000000000000000000000000000000000000000000000000000000000000000000000000000000000000000000000000000000000000000000000000000000000000000000000000000000000000000000000000000000000000000000000000000000000000000000000000000000000000000000000000000000000000000000000000000000000000000000000000000000000000000000000000000000000000000000000000000000000000000000000000000000000000000000000000000000000000000000000000000000000000000000000000000000000000000000000000000000000000000000000000000000000000000000000000000000000000000000000000000000000000000000000000000000000000000000000000000000000000000000000000000000000000000000000000000000000000000000000000000000000000000000000000000000000000000000000000000000000000000000000000000000000000000000000000000000000000000000000000000000000000000000000000000000000000000000000000000000000000000000000000000000000000000000000000000000000000000000000000000000000000000000000000000000000000000000000 '
13
17
#8300
0.
#8500
08
0"
#9000
0)
b11 +
b1010001000000000 9
b1111111111111010100 &
b101 -
18
b1101111111101000 !
1"
#9500
08
0"
#10000
b10 +
b1101100000110110 9
b1010111111111111101 &
b1111 -
18
b100011110101101 !
1"
#10100
03
07
#10500
08
0"
#11000
b0 +
b1110101001001000 9
b11110101011111111111 &
b1101 -
18
b10000011010110 !
1"
#11500
08
0"
#12000
1*
b1 +
b1110101101001010 9
b11011111010101111111 &
b1101 -
18
b1001111000110100 !
1"
#12500
08
0"
#13000
1)
0*
b10 +
b1110111001001010 9
b11011101111101010111 &
b0 -
18
b1001111110010110 !
1"
#13100
b1110111001001010xxxxxxxx00000000xxxxxxxxxxxxxxxx00000000000000000000000000000000000000000000000000000000000000000000000000000000000000000000000000000000000000000000000000000000000000000000000000000000000000000000000000000000000000000000000000000000000000000000000000000000000000000000000000000000000000000000000000000000000000000000000000000000000000000000000000000000000000000000000000000000000000000000000000000000000000000000000000000000000000000000000000000000000000000000000000000000000000000000000000000000000000000000000000000000000000000000000000000000000000000000000000000000000000000000000000000000000000000000000000000000000000000000000000000000000000000000000000000000000000000000000000000000000000000000000000000000000000000000000000000000000000000000000000000000000000000000000000000000000000000000000000000000000000000000000000000000000000000000000000000000000000000000000000000000000000000000000000000000000000000000000000000000000000000000000000000000000000000000000000000000000000000000000000000000000000000000000000000000000000000000000000000000000000000000000000000000 ,
0/
01
b1110111001001010xxxxxxxx00000000xxxxxxxxxxxxxxxx00000000000000000000000000000000000000000000000000000000000000000000000000000000000000000000000000000000000000000000000000000000000000000000000000000000000000000000000000000000000000000000000000000000000000000000000000000000000000000000000000000000000000000000000000000000000000000000000000000000000000000000000000000000000000000000000000000000000000000000000000000000000000000000000000000000000000000000000000000000000000000000000000000000000000000000000000000000000000000000000000000000000000000000000000000000000000000000000000000000000000000000000000000000000000000000000000000000000000000000000000000000000000000000000000000000000000000000000000000000000000000000000000000000000000000000000000000000000000000000000000000000000000000000000000000000000000000000000000000000000000000000000000000000000000000000000000000000000000000000000000000000000000000000000000000000000000000000000000000000000000000000000000000000000000000000000000000000000000000000000000000000000000000000000000000000000000000000000000000000000000000000000000000000 '
13
17
#13500
08
0"
#14000
0)
b11 +
b1010001001010001 9
b1101110111110101 &
b1111 -
18
b11001001110001 !
1"
#14500
08
0"
#15000
b10 +
b1011110101101100 9
b11110000110111011111 &
b111 -
18
b101001010111001 !
1"
#15100
03
07
#15500
08
0"
#16000
b0 +
b1100111101111110 9
b1111111000011011101 &
b1101 -
18
b100110101001111 !
1"
#16500
08
0"
#17000
1*
b1 +
b1101000010000000 9
b11010111111100001101 &
b0 -
18
b1000010000011000 !
1"
#17500
08
0"
#18000
1)
0*
b10 +
b1101011010000110 9
b1101011111110000 &
b11 -
18
b1010100010111 !
1"
#18100
b11010110100001101110111001001010xxxxxxxx00000000xxxxxxxxxxxxxxxx0000000000000000000000000000000000000000000000000000000000000000000000000000000000000000000000000000000000000000000000000000000000000000000000000000000000000000000000000000000000000000000000000000000000000000000000000000000000000000000000000000000000000000000000000000000000000000000000000000000000000000000000000000000000000000000000000000000000000000000000000000000000000000000000000000000000000000000000000000000000000000000000000000000000000000000000000000000000000000000000000000000000000000000000000000000000000000000000000000000000000000000000000000000000000000000000000000000000000000000000000000000000000000000000000000000000000000000000000000000000000000000000000000000000000000000000000000000000000000000000000000000000000000000000000000000000000000000000000000000000000000000000000000000000000000000000000000000000000000000000000000000000000000000000000000000000000000000000000000000000000000000000000000000000000000000000000000000000000000000000000000000000000000000000000000000000000000000000000000000000000000 ,
11
b11010110100001101110111001001010xxxxxxxx00000000xxxxxxxxxxxxxxxx0000000000000000000000000000000000000000000000000000000000000000000000000000000000000000000000000000000000000000000000000000000000000000000000000000000000000000000000000000000000000000000000000000000000000000000000000000000000000000000000000000000000000000000000000000000000000000000000000000000000000000000000000000000000000000000000000000000000000000000000000000000000000000000000000000000000000000000000000000000000000000000000000000000000000000000000000000000000000000000000000000000000000000000000000000000000000000000000000000000000000000000000000000000000000000000000000000000000000000000000000000000000000000000000000000000000000000000000000000000000000000000000000000000000000000000000000000000000000000000000000000000000000000000000000000000000000000000000000000000000000000000000000000000000000000000000000000000000000000000000000000000000000000000000000000000000000000000000000000000000000000000000000000000000000000000000000000000000000000000000000000000000000000000000000000000000000000000000000000000000000000 '
13
17
#18500
08
0"
#19000
0)
b11 +
b1010001010100010 9
b110000110101111111 &
b1111 -
18
b1000000010101101 !
1"
#19500
08
0"
#20000
b10 +
b1011110110100010 9
b11110011000011010111 &
b100 -
18
b1011010110011111 !
1"
#20100
03
07
#20500
08
0"
#21000
b0 +
b1100011010100010 9
b1001111001100001101 &
b1100 -
18
b11101111100111 !
1"
#21500
08
0"
#22000
1*
b1 +
b1100100010100011 9
b11000100111100110000 &
b1101 -
18
b1111100001010101 !
1"
#22500
08
0"
#23000
1)
0*
b10 +
b1100111010101001 9
b11011100010011110011 &
b0 -
18
b1110110111001100 !
1"
#23100
b110011101010100111010110100001101110111001001010xxxxxxxx00000000xxxxxxxxxxxxxxxx000000000000000000000000000000000000000000000000000000000000000000000000000000000000000000000000000000000000000000000000000000000000000000000000000000000000000000000000000000000000000000000000000000000000000000000000000000000000000000000000000000000000000000000000000000000000000000000000000000000000000000000000000000000000000000000000000000000000000000000000000000000000000000000000000000000000000000000000000000000000000000000000000000000000000000000000000000000000000000000000000000000000000000000000000000000000000000000000000000000000000000000000000000000000000000000000000000000000000000000000000000000000000000000000000000000000000000000000000000000000000000000000000000000000000000000000000000000000000000000000000000000000000000000000000000000000000000000000000000000000000000000000000000000000000000000000000000000000000000000000000000000000000000000000000000000000000000000000000000000000000000000000000000000000000000000000000000000000000000000000000000000000000000000000000000000000000000000000 ,
01
b110011101010100111010110100001101110111001001010xxxxxxxx00000000xxxxxxxxxxxxxxxx000000000000000000000000000000000000000000000000000000000000000000000000000000000000000000000000000000000000000000000000000000000000000000000000000000000000000000000000000000000000000000000000000000000000000000000000000000000000000000000000000000000000000000000000000000000000000000000000000000000000000000000000000000000000000000000000000000000000000000000000000000000000000000000000000000000000000000000000000000000000000000000000000000000000000000000000000000000000000000000000000000000000000000000000000000000000000000000000000000000000000000000000000000000000000000000000000000000000000000000000000000000000000000000000000000000000000000000000000000000000000000000000000000000000000000000000000000000000000000000000000000000000000000000000000000000000000000000000000000000000000000000000000000000000000000000000000000000000000000000000000000000000000000000000000000000000000000000000000000000000000000000000000000000000000000000000000000000000000000000000000000000000000000000000000000000000000000000000 '
13
17
#23500
08
0"
#24000
0)
b11 +
b1010001010100010 9
b1101110001001111 &
b101 -
18
b1001000100110111 !
1"
#24500
08
0"
#25000
b10 +
b1010000110111000100 &
b1101 -
18
b111010001100001 !
1"
#25100
03
07
#25500
08
0"
#26000
b0 +
b1010101110110100 9
b11010101000011011100 &
b1 -
18
b1000101000011111 !
1"
#26500
08
0"
#27000
1*
b1 +
b1010110110110100 9
b11101010100001101 &
b1100 -
18
b1100101111001111 !
1"
#27500
08
0"
#28000
1)
0*
b10 +
b11000001110101010000 &
b100 -
18
b1101110011100100 !
1"
#28100
b1010110110110100110011101010100111010110100001101110111001001010xxxxxxxx00000000xxxxxxxxxxxxxxxx00000000000000000000000000000000000000000000000000000000000000000000000000000000000000000000000000000000000000000000000000000000000000000000000000000000000000000000000000000000000000000000000000000000000000000000000000000000000000000000000000000000000000000000000000000000000000000000000000000000000000000000000000000000000000000000000000000000000000000000000000000000000000000000000000000000000000000000000000000000000000000000000000000000000000000000000000000000000000000000000000000000000000000000000000000000000000000000000000000000000000000000000000000000000000000000000000000000000000000000000000000000000000000000000000000000000000000000000000000000000000000000000000000000000000000000000000000000000000000000000000000000000000000000000000000000000000000000000000000000000000000000000000000000000000000000000000000000000000000000000000000000000000000000000000000000000000000000000000000000000000000000000000000000000000000000000000000000000000000000000000000000000000000000000000000000 ,
11
b1010110110110100110011101010100111010110100001101110111001001010xxxxxxxx00000000xxxxxxxxxxxxxxxx00000000000000000000000000000000000000000000000000000000000000000000000000000000000000000000000000000000000000000000000000000000000000000000000000000000000000000000000000000000000000000000000000000000000000000000000000000000000000000000000000000000000000000000000000000000000000000000000000000000000000000000000000000000000000000000000000000000000000000000000000000000000000000000000000000000000000000000000000000000000000000000000000000000000000000000000000000000000000000000000000000000000000000000000000000000000000000000000000000000000000000000000000000000000000000000000000000000000000000000000000000000000000000000000000000000000000000000000000000000000000000000000000000000000000000000000000000000000000000000000000000000000000000000000000000000000000000000000000000000000000000000000000000000000000000000000000000000000000000000000000000000000000000000000000000000000000000000000000000000000000000000000000000000000000000000000000000000000000000000000000000000000000000000000000000000 '
13
17
#28500
08
0"
#29000
0)
b11 +
b1010001 9
b1001100000111010101 &
b1101 -
18
b110010111000100 !
1"
#29500
08
0"
#30000
b10 +
b1101101010001 9
b11010100110000011101 &
b1111 -
18
b1110000000001110 !
1"
#30100
03
07
#30500
08
0"
#31000
b0 +
b10110101010001 9
b11111101010011000001 &
b1100 -
18
b1000011010010000 !
1"
#31500
08
0"
#32000
1*
b1 +
b10111001010010 9
b11001111110101001100 &
b101 -
18
b110110100000001 !
1"
#32500
08
0"
#33000
1)
0*
b10 +
b11000101011000 9
b1011100111111010100 &
b1101 -
18
b110100000101000 !
1"
#33100
b110001010110001010110110110100110011101010100111010110100001101110111001001010xxxxxxxx00000000xxxxxxxxxxxxxxxx0000000000000000000000000000000000000000000000000000000000000000000000000000000000000000000000000000000000000000000000000000000000000000000000000000000000000000000000000000000000000000000000000000000000000000000000000000000000000000000000000000000000000000000000000000000000000000000000000000000000000000000000000000000000000000000000000000000000000000000000000000000000000000000000000000000000000000000000000000000000000000000000000000000000000000000000000000000000000000000000000000000000000000000000000000000000000000000000000000000000000000000000000000000000000000000000000000000000000000000000000000000000000000000000000000000000000000000000000000000000000000000000000000000000000000000000000000000000000000000000000000000000000000000000000000000000000000000000000000000000000000000000000000000000000000000000000000000000000000000000000000000000000000000000000000000000000000000000000000000000000000000000000000000000000000000000000000000000000000000000000000000000000000 ,
01
b110001010110001010110110110100110011101010100111010110100001101110111001001010xxxxxxxx00000000xxxxxxxxxxxxxxxx0000000000000000000000000000000000000000000000000000000000000000000000000000000000000000000000000000000000000000000000000000000000000000000000000000000000000000000000000000000000000000000000000000000000000000000000000000000000000000000000000000000000000000000000000000000000000000000000000000000000000000000000000000000000000000000000000000000000000000000000000000000000000000000000000000000000000000000000000000000000000000000000000000000000000000000000000000000000000000000000000000000000000000000000000000000000000000000000000000000000000000000000000000000000000000000000000000000000000000000000000000000000000000000000000000000000000000000000000000000000000000000000000000000000000000000000000000000000000000000000000000000000000000000000000000000000000000000000000000000000000000000000000000000000000000000000000000000000000000000000000000000000000000000000000000000000000000000000000000000000000000000000000000000000000000000000000000000000000000000000000000000000000000 '
13
17
#33500
08
0"
#34000
0)
b11 +
b1010001001010001 9
b11010101110011111101 &
b1100 -
18
b101011011011110 !
1"
#34500
08
0"
#35000
b10 +
b1010001001101100 9
b11001101010111001111 &
b1111 -
18
b1011111101001 !
1"
#35100
03
07
#35500
08
0"
#36000
b0 +
b1011010001101100 9
b11111100110101011100 &
b1101 -
18
b1010001111111 !
1"
#36500
08
0"
#37000
1*
b1 +
b1011011001101100 9
b11011111110011010101 &
b1100 -
18
b1100010111001111 !
1"
#37500
08
0"
#38000
1)
0*
b10 +
b1011110001110010 9
b11001101111111001101 &
b1100 -
18
b1101011100010101 !
1"
#38100
b101111000111001000110001010110001010110110110100110011101010100111010110100001101110111001001010xxxxxxxx00000000xxxxxxxxxxxxxxxx000000000000000000000000000000000000000000000000000000000000000000000000000000000000000000000000000000000000000000000000000000000000000000000000000000000000000000000000000000000000000000000000000000000000000000000000000000000000000000000000000000000000000000000000000000000000000000000000000000000000000000000000000000000000000000000000000000000000000000000000000000000000000000000000000000000000000000000000000000000000000000000000000000000000000000000000000000000000000000000000000000000000000000000000000000000000000000000000000000000000000000000000000000000000000000000000000000000000000000000000000000000000000000000000000000000000000000000000000000000000000000000000000000000000000000000000000000000000000000000000000000000000000000000000000000000000000000000000000000000000000000000000000000000000000000000000000000000000000000000000000000000000000000000000000000000000000000000000000000000000000000000000000000000000000000000000000000000000000000000000 ,
11
b101111000111001000110001010110001010110110110100110011101010100111010110100001101110111001001010xxxxxxxx00000000xxxxxxxxxxxxxxxx000000000000000000000000000000000000000000000000000000000000000000000000000000000000000000000000000000000000000000000000000000000000000000000000000000000000000000000000000000000000000000000000000000000000000000000000000000000000000000000000000000000000000000000000000000000000000000000000000000000000000000000000000000000000000000000000000000000000000000000000000000000000000000000000000000000000000000000000000000000000000000000000000000000000000000000000000000000000000000000000000000000000000000000000000000000000000000000000000000000000000000000000000000000000000000000000000000000000000000000000000000000000000000000000000000000000000000000000000000000000000000000000000000000000000000000000000000000000000000000000000000000000000000000000000000000000000000000000000000000000000000000000000000000000000000000000000000000000000000000000000000000000000000000000000000000000000000000000000000000000000000000000000000000000000000000000000000000000000000000000 '
13
17
#38500
08
0"
#39000
0)
b11 +
b1010001000000000 9
b11001100110111111100 &
b1100 -
18
b1111001000011110 !
1"
#39500
08
0"
#40000
b10 +
b1011110100110110 9
b11001100110011011111 &
b0 -
18
b1100000001100011 !
1"
#40100
03
07
#40500
08
0"
#41000
b0 +
b1100111100111111 9
b1100110011001101 &
b1 -
18
b10110110010001 !
1"
#41500
08
0"
#42000
1*
b1 +
b1101000101000000 9
b10000110011001100 &
b1111 -
18
b1110011000001110 !
1"
#42500
08
0"
#43000
1)
0*
b10 +
b1101011101000011 9
b11110001000011001100 &
b111 -
18
b1111010000010111 !
1"
#43100
b1101011101000011101111000111001000110001010110001010110110110100110011101010100111010110100001101110111001001010xxxxxxxx00000000xxxxxxxxxxxxxxxx00000000000000000000000000000000000000000000000000000000000000000000000000000000000000000000000000000000000000000000000000000000000000000000000000000000000000000000000000000000000000000000000000000000000000000000000000000000000000000000000000000000000000000000000000000000000000000000000000000000000000000000000000000000000000000000000000000000000000000000000000000000000000000000000000000000000000000000000000000000000000000000000000000000000000000000000000000000000000000000000000000000000000000000000000000000000000000000000000000000000000000000000000000000000000000000000000000000000000000000000000000000000000000000000000000000000000000000000000000000000000000000000000000000000000000000000000000000000000000000000000000000000000000000000000000000000000000000000000000000000000000000000000000000000000000000000000000000000000000000000000000000000000000000000000000000000000000000000000000000000000000000000000000000000000000000000000000000 ,
01
b1101011101000011101111000111001000110001010110001010110110110100110011101010100111010110100001101110111001001010xxxxxxxx00000000xxxxxxxxxxxxxxxx00000000000000000000000000000000000000000000000000000000000000000000000000000000000000000000000000000000000000000000000000000000000000000000000000000000000000000000000000000000000000000000000000000000000000000000000000000000000000000000000000000000000000000000000000000000000000000000000000000000000000000000000000000000000000000000000000000000000000000000000000000000000000000000000000000000000000000000000000000000000000000000000000000000000000000000000000000000000000000000000000000000000000000000000000000000000000000000000000000000000000000000000000000000000000000000000000000000000000000000000000000000000000000000000000000000000000000000000000000000000000000000000000000000000000000000000000000000000000000000000000000000000000000000000000000000000000000000000000000000000000000000000000000000000000000000000000000000000000000000000000000000000000000000000000000000000000000000000000000000000000000000000000000000000000000000000000000000 '
13
17
#43500
08
0"
#44000
0)
b11 +
b0 9
b1111111000100001100 &
b1101 -
18
b101100010110 !
1"
#44500
08
0"
#45000
b10 +
b1101100110110 9
b11010111111100010000 &
b100 -
18
b1010110001010100 !
1"
#45100
03
07
#45500
08
0"
#46000
b0 +
b1001101011111110001 &
b101 -
18
b1100011111111101 !
1"
#46500
08
0"
#47000
1*
b1 +
b1110100110110 9
b1010100110101111111 &
b1111 -
18
b110100000100000 !
1"
#47500
08
0"
#48000
1)
0*
b10 +
b1110100111100 9
b11110101010011010111 &
b11 -
18
b1101111000000101 !
1"
#48100
b11101001111001101011101000011101111000111001000110001010110001010110110110100110011101010100111010110100001101110111001001010xxxxxxxx00000000xxxxxxxxxxxxxxxx0000000000000000000000000000000000000000000000000000000000000000000000000000000000000000000000000000000000000000000000000000000000000000000000000000000000000000000000000000000000000000000000000000000000000000000000000000000000000000000000000000000000000000000000000000000000000000000000000000000000000000000000000000000000000000000000000000000000000000000000000000000000000000000000000000000000000000000000000000000000000000000000000000000000000000000000000000000000000000000000000000000000000000000000000000000000000000000000000000000000000000000000000000000000000000000000000000000000000000000000000000000000000000000000000000000000000000000000000000000000000000000000000000000000000000000000000000000000000000000000000000000000000000000000000000000000000000000000000000000000000000000000000000000000000000000000000000000000000000000000000000000000000000000000000000000000000000000000000000000000000000000000000000000000000000 ,
11
b11101001111001101011101000011101111000111001000110001010110001010110110110100110011101010100111010110100001101110111001001010xxxxxxxx00000000xxxxxxxxxxxxxxxx0000000000000000000000000000000000000000000000000000000000000000000000000000000000000000000000000000000000000000000000000000000000000000000000000000000000000000000000000000000000000000000000000000000000000000000000000000000000000000000000000000000000000000000000000000000000000000000000000000000000000000000000000000000000000000000000000000000000000000000000000000000000000000000000000000000000000000000000000000000000000000000000000000000000000000000000000000000000000000000000000000000000000000000000000000000000000000000000000000000000000000000000000000000000000000000000000000000000000000000000000000000000000000000000000000000000000000000000000000000000000000000000000000000000000000000000000000000000000000000000000000000000000000000000000000000000000000000000000000000000000000000000000000000000000000000000000000000000000000000000000000000000000000000000000000000000000000000000000000000000000000000000000000000000000000 '
13
17
#48500
08
0"
#49000
0)
b11 +
b101000101010001 9
b111111010101001101 &
b1101 -
18
b10011000000001 !
1"
#49500
08
0"
#50000
b10 +
b110110001101100 9
b11010011111101010100 &
b1100 -
18
b101110001111110 !
1"
#50100
03
07
#50500
08
0"
#51000
b0 +
b111010101111110 9
b11001101001111110101 &
b11 -
18
b1001001100101100 !
1"
#51500
08
0"
#52000
1*
b1 +
b111011110000000 9
b111100110100111111 &
b0 -
18
b110110000111111 !
1"
#52500
08
0"
#53000
1)
0*
b10 +
b111011110000110 9
b11110011010011 &
b101 -
18
b1011011100010 !
1"
#53100
b11101111000011000011101001111001101011101000011101111000111001000110001010110001010110110110100110011101010100111010110100001101110111001001010xxxxxxxx00000000xxxxxxxxxxxxxxxx000000000000000000000000000000000000000000000000000000000000000000000000000000000000000000000000000000000000000000000000000000000000000000000000000000000000000000000000000000000000000000000000000000000000000000000000000000000000000000000000000000000000000000000000000000000000000000000000000000000000000000000000000000000000000000000000000000000000000000000000000000000000000000000000000000000000000000000000000000000000000000000000000000000000000000000000000000000000000000000000000000000000000000000000000000000000000000000000000000000000000000000000000000000000000000000000000000000000000000000000000000000000000000000000000000000000000000000000000000000000000000000000000000000000000000000000000000000000000000000000000000000000000000000000000000000000000000000000000000000000000000000000000000000000000000000000000000000000000000000000000000000000000000000000000000000000000000000000000000000000000000000000 ,
01
b11101111000011000011101001111001101011101000011101111000111001000110001010110001010110110110100110011101010100111010110100001101110111001001010xxxxxxxx00000000xxxxxxxxxxxxxxxx000000000000000000000000000000000000000000000000000000000000000000000000000000000000000000000000000000000000000000000000000000000000000000000000000000000000000000000000000000000000000000000000000000000000000000000000000000000000000000000000000000000000000000000000000000000000000000000000000000000000000000000000000000000000000000000000000000000000000000000000000000000000000000000000000000000000000000000000000000000000000000000000000000000000000000000000000000000000000000000000000000000000000000000000000000000000000000000000000000000000000000000000000000000000000000000000000000000000000000000000000000000000000000000000000000000000000000000000000000000000000000000000000000000000000000000000000000000000000000000000000000000000000000000000000000000000000000000000000000000000000000000000000000000000000000000000000000000000000000000000000000000000000000000000000000000000000000000000000000000000000000000000 '
13
17
#53500
08
0"
#54000
0)
b11 +
b1010001 9
b1010000001111001101 &
b1101 -
18
b1011100111001010 !
1"
#54500
08
0"
#55000
b10 +
b11011001010001 9
b11010101000000111100 &
b111 -
18
b1010100110011011 !
1"
#55100
03
07
#55500
08
0"
#56000
b0 +
b100100001100011 9
b1111101010100000011 &
b1111 -
18
b11010100101111 !
1"
#56500
08
0"
#57000
1*
b1 +
b100101001100101 9
b11110111110101010000 &
b101 -
18
b1001011101111100 !
1"
#57500
08
0"
#58000
1)
0*
b10 +
b100101001101011 9
b1011111011111010101 &
b101 -
18
b1010110010001110 !
1"
#58100
b100101001101011011101111000011000011101001111001101011101000011101111000111001000110001010110001010110110110100110011101010100111010110100001101110111001001010xxxxxxxx00000000xxxxxxxxxxxxxxxx00000000000000000000000000000000000000000000000000000000000000000000000000000000000000000000000000000000000000000000000000000000000000000000000000000000000000000000000000000000000000000000000000000000000000000000000000000000000000000000000000000000000000000000000000000000000000000000000000000000000000000000000000000000000000000000000000000000000000000000000000000000000000000000000000000000000000000000000000000000000000000000000000000000000000000000000000000000000000000000000000000000000000000000000000000000000000000000000000000000000000000000000000000000000000000000000000000000000000000000000000000000000000000000000000000000000000000000000000000000000000000000000000000000000000000000000000000000000000000000000000000000000000000000000000000000000000000000000000000000000000000000000000000000000000000000000000000000000000000000000000000000000000000000000000000000000000000000000000000000 ,
11
b100101001101011011101111000011000011101001111001101011101000011101111000111001000110001010110001010110110110100110011101010100111010110100001101110111001001010xxxxxxxx00000000xxxxxxxxxxxxxxxx00000000000000000000000000000000000000000000000000000000000000000000000000000000000000000000000000000000000000000000000000000000000000000000000000000000000000000000000000000000000000000000000000000000000000000000000000000000000000000000000000000000000000000000000000000000000000000000000000000000000000000000000000000000000000000000000000000000000000000000000000000000000000000000000000000000000000000000000000000000000000000000000000000000000000000000000000000000000000000000000000000000000000000000000000000000000000000000000000000000000000000000000000000000000000000000000000000000000000000000000000000000000000000000000000000000000000000000000000000000000000000000000000000000000000000000000000000000000000000000000000000000000000000000000000000000000000000000000000000000000000000000000000000000000000000000000000000000000000000000000000000000000000000000000000000000000000000000000000000000 '
13
17
#58500
08
0"
#59000
0)
b11 +
b1010001001010001 9
b1010101111101111101 &
b1100 -
18
b1101000111000000 !
1"
#59500
08
0"
#60000
b10 +
b1101100001101100 9
b11000101010111110111 &
b11 -
18
b100111010011011 !
1"
#60100
03
07
#60500
08
0"
#61000
b0 +
b1110000101110101 9
b111100010101011111 &
b1100 -
18
b1110100111110110 !
1"
#61500
08
0"
#62000
1*
b1 +
b1110001101110101 9
b11000011110001010101 &
b100 -
18
b1110101110001010 !
1"
#62500
08
0"
#63000
1)
0*
b10 +
b1110100101110101 9
b1001100001111000101 &
b100 -
18
b10001011101 !
1"
#63100
b11101001011101010100101001101011011101111000011000011101001111001101011101000011101111000111001000110001010110001010110110110100110011101010100111010110100001101110111001001010xxxxxxxx00000000xxxxxxxxxxxxxxxx0000000000000000000000000000000000000000000000000000000000000000000000000000000000000000000000000000000000000000000000000000000000000000000000000000000000000000000000000000000000000000000000000000000000000000000000000000000000000000000000000000000000000000000000000000000000000000000000000000000000000000000000000000000000000000000000000000000000000000000000000000000000000000000000000000000000000000000000000000000000000000000000000000000000000000000000000000000000000000000000000000000000000000000000000000000000000000000000000000000000000000000000000000000000000000000000000000000000000000000000000000000000000000000000000000000000000000000000000000000000000000000000000000000000000000000000000000000000000000000000000000000000000000000000000000000000000000000000000000000000000000000000000000000000000000000000000000000000000000000000000000000000000000000000000000000000000000 ,
01
b11101001011101010100101001101011011101111000011000011101001111001101011101000011101111000111001000110001010110001010110110110100110011101010100111010110100001101110111001001010xxxxxxxx00000000xxxxxxxxxxxxxxxx0000000000000000000000000000000000000000000000000000000000000000000000000000000000000000000000000000000000000000000000000000000000000000000000000000000000000000000000000000000000000000000000000000000000000000000000000000000000000000000000000000000000000000000000000000000000000000000000000000000000000000000000000000000000000000000000000000000000000000000000000000000000000000000000000000000000000000000000000000000000000000000000000000000000000000000000000000000000000000000000000000000000000000000000000000000000000000000000000000000000000000000000000000000000000000000000000000000000000000000000000000000000000000000000000000000000000000000000000000000000000000000000000000000000000000000000000000000000000000000000000000000000000000000000000000000000000000000000000000000000000000000000000000000000000000000000000000000000000000000000000000000000000000000000000000000000000000 '
13
17
#63500
08
0"
